CPU_TB.vcd
$date
	Fri Nov 17 14:48:33 2023
$end
$version
	Icarus Verilog
$end
$timescale
	1ns
$end
$scope module CPU_TB $end
$var reg 1 ! clk $end
$var reg 1 " reset $end
$var reg 1 # rst $end
$scope module cpu $end
$var wire 1 ! clk $end
$var wire 1 " reset $end
$var wire 1 # rst $end
$var wire 1 $ we $end
$var wire 32 % sum_out [31:0] $end
$var wire 1 & store $end
$var wire 3 ' salida_funct3 [2:0] $end
$var wire 32 ( result [31:0] $end
$var wire 32 ) pc_out [31:0] $end
$var wire 32 * pc_in [31:0] $end
$var wire 32 + operand2 [31:0] $end
$var wire 32 , operand1 [31:0] $end
$var wire 32 - load_data [31:0] $end
$var wire 32 . instruction [31:0] $end
$var wire 32 / imm32 [31:0] $end
$var wire 3 0 funct_imm [2:0] $end
$var wire 32 1 data2 [31:0] $end
$var wire 32 2 data1 [31:0] $end
$var wire 32 3 data [31:0] $end
$var wire 2 4 controlRF [1:0] $end
$var wire 1 5 controlOp1 $end
$var wire 1 6 controlALU $end
$var wire 3 7 Type_dm [2:0] $end
$var wire 1 8 Type_alu_dm $end
$var wire 1 9 NextPCSrc $end
$var wire 5 : BrOp [4:0] $end
$var parameter 32 ; TAM $end
$var reg 3 < funct3 [2:0] $end
$var reg 7 = funct7 [6:0] $end
$var reg 25 > immediate [24:0] $end
$var reg 7 ? opcode [6:0] $end
$var reg 5 @ rd [4:0] $end
$var reg 1 A read $end
$var reg 5 B rs1 [4:0] $end
$var reg 5 C rs2 [4:0] $end
$scope module alu $end
$var wire 1 D clk $end
$var wire 32 E operand2 [31:0] $end
$var wire 32 F operand1 [31:0] $end
$var wire 3 G funct3_alu [2:0] $end
$var wire 1 8 Type_alu $end
$var reg 1 H bit_significativo $end
$var reg 32 I conteo [31:0] $end
$var reg 32 J result [31:0] $end
$upscope $end
$scope module branch $end
$var wire 32 K RUrs2 [31:0] $end
$var wire 32 L RUrs1 [31:0] $end
$var wire 5 M BrOp [4:0] $end
$var reg 1 9 NextPCSrc $end
$upscope $end
$scope module cu $end
$var wire 3 N funct3 [2:0] $end
$var wire 7 O funct7 [6:0] $end
$var wire 7 P opcode [6:0] $end
$var reg 5 Q BrOp [4:0] $end
$var reg 1 8 Type_alu $end
$var reg 3 R Type_dm [2:0] $end
$var reg 1 6 controlALU $end
$var reg 1 5 controlOp1 $end
$var reg 2 S controlRF [1:0] $end
$var reg 3 T funct_imm [2:0] $end
$var reg 3 U salida_funct3 [2:0] $end
$var reg 1 & store $end
$var reg 1 $ we $end
$upscope $end
$scope module dm $end
$var wire 3 V Type [2:0] $end
$var wire 1 ! clk $end
$var wire 1 & store $end
$var wire 32 W store_data [31:0] $end
$var wire 32 X offset [31:0] $end
$var wire 32 Y direccion [31:0] $end
$var wire 32 Z address [31:0] $end
$var parameter 32 [ TAM $end
$var reg 32 \ count [31:0] $end
$var reg 32 ] data [31:0] $end
$var reg 32 ^ load_data [31:0] $end
$upscope $end
$scope module im $end
$var wire 32 _ pc [31:0] $end
$var parameter 32 ` TAM $end
$var reg 32 a instruction [31:0] $end
$upscope $end
$scope module imm $end
$var wire 3 b funct [2:0] $end
$var wire 25 c immediate [24:0] $end
$var reg 32 d imm32 [31:0] $end
$upscope $end
$scope module mux1 $end
$var wire 1 6 control $end
$var wire 32 e entrada2 [31:0] $end
$var wire 32 f entrada1 [31:0] $end
$var reg 32 g salida [31:0] $end
$upscope $end
$scope module mux2 $end
$var wire 2 h control [1:0] $end
$var wire 32 i entrada1 [31:0] $end
$var wire 32 j entrada2 [31:0] $end
$var wire 32 k salida [31:0] $end
$var wire 32 l entrada3 [31:0] $end
$upscope $end
$scope module mux3 $end
$var wire 1 9 control $end
$var wire 32 m entrada2 [31:0] $end
$var wire 32 n entrada1 [31:0] $end
$var reg 32 o salida [31:0] $end
$upscope $end
$scope module mux4 $end
$var wire 1 5 control $end
$var wire 32 p entrada2 [31:0] $end
$var wire 32 q entrada1 [31:0] $end
$var reg 32 r salida [31:0] $end
$upscope $end
$scope module pc $end
$var wire 1 ! clk $end
$var wire 32 s pc_in [31:0] $end
$var wire 1 " reset $end
$var reg 32 t pc_out [31:0] $end
$upscope $end
$scope module rf $end
$var wire 1 $ WriteEnable $end
$var wire 1 ! clk $end
$var wire 32 u data [31:0] $end
$var wire 5 v rd [4:0] $end
$var wire 5 w rs1 [4:0] $end
$var wire 5 x rs2 [4:0] $end
$var wire 1 # rst $end
$var reg 32 y data1 [31:0] $end
$var reg 32 z data2 [31:0] $end
$var reg 32 { i [31:0] $end
$upscope $end
$scope module sumador $end
$var wire 32 | pc [31:0] $end
$var reg 32 } sum_out [31:0] $end
$upscope $end
$upscope $end
$upscope $end
$enddefinitions $end
$comment Show the parameter values. $end
$dumpall
b1111111111 `
b1111111111 [
b1111111111 ;
$end
#0
$dumpvars
bx }
bx |
bx {
bx z
bx y
bx x
bx w
bx v
bx u
bx t
bx s
bx r
bx q
bx p
bx o
bx n
bx m
bx l
bx k
bx j
bx i
bx h
bx g
bx f
bx e
bx d
bx c
bx b
bx a
bx _
bx ^
bx ]
bx \
bx Z
bx Y
bx X
bx W
bx V
bx U
bx T
bx S
bx R
bx Q
bx P
bx O
bx N
bx M
bx L
bx K
bx J
bx I
xH
bx G
bx F
bx E
zD
bx C
bx B
1A
bx @
bx ?
bx >
bx =
bx <
bx :
x9
x8
bx 7
x6
x5
bx 4
bx 3
bx 2
bx 1
bx 0
bx /
bx .
bx -
bx ,
bx +
bx *
bx )
bx (
bx '
x&
bx %
x$
1#
x"
1!
$end
#5
0!
#10
1!
1"
0#
#15
b1000000000010000110011 .
b1000000000010000110011 a
b0 *
b0 o
b0 s
b100 %
b100 l
b100 n
b100 }
b0 ,
b0 F
b0 r
b0 )
b0 _
b0 p
b0 t
b0 |
0!
#20
b111110100 3
b111110100 k
b111110100 u
b111110100 (
b111110100 J
b111110100 j
b111110100 m
b111110100 +
b111110100 E
b111110100 g
b111110100 1
b111110100 K
b111110100 W
b111110100 f
b111110100 z
b0 2
b0 L
b0 Y
b0 q
b0 y
b100 *
b100 o
b100 s
b0 ,
b0 F
b0 r
09
08
b0 '
b0 G
b0 U
b1 4
b1 S
b1 h
1$
05
06
b0 :
b0 M
b0 Q
0&
b100000000001000 >
b100000000001000 c
b10 C
b10 x
b0 B
b0 w
b1000 @
b1000 v
b0 =
b0 O
b0 <
b0 N
b110011 ?
b110011 P
1!
0"
#25
b100010010000000100011 .
b100010010000000100011 a
b1000 *
b1000 o
b1000 s
b1000 %
b1000 l
b1000 n
b1000 }
b100 )
b100 _
b100 p
b100 t
b100 |
0!
#30
b0 +
b0 E
b0 g
b111110100 ,
b111110100 F
b111110100 r
b0 1
b0 K
b0 W
b0 f
b0 z
b111110100 2
b111110100 L
b111110100 Y
b111110100 q
b111110100 y
b111110100000 Z
b0 /
b0 X
b0 d
b0 e
b10 7
b10 R
b10 V
b1 0
b1 T
b1 b
0$
1&
b10001001000000 >
b10001001000000 c
b1 C
b1 x
b10 B
b10 w
b0 @
b0 v
b10 <
b10 N
b100011 ?
b100011 P
1!
#35
b11111111110000010000000100010011 .
b11111111110000010000000100010011 a
b1100 *
b1100 o
b1100 s
b1100 %
b1100 l
b1100 n
b1100 }
b1000 )
b1000 _
b1000 p
b1000 t
b1000 |
b100000 \
0!
#40
b111110000 3
b111110000 k
b111110000 u
b111110000 (
b111110000 J
b111110000 j
b111110000 m
b11111111111111111111111111111100 +
b11111111111111111111111111111100 E
b11111111111111111111111111111100 g
b0 -
b0 ^
b0 i
b0 ]
b100000 \
b111110000000 Z
b11111111111111111111111111111100 /
b11111111111111111111111111111100 X
b11111111111111111111111111111100 d
b11111111111111111111111111111100 e
b0 0
b0 T
b0 b
1$
16
0&
b1111111111000001000000010 >
b1111111111000001000000010 c
b11100 C
b11100 x
b10 @
b10 v
b1111111 =
b1111111 O
b0 <
b0 N
b10011 ?
b10011 P
1!
#45
b10001000010010100000011 .
b10001000010010100000011 a
b10000 *
b10000 o
b10000 s
b10000 %
b10000 l
b10000 n
b10000 }
b1100 )
b1100 _
b1100 p
b1100 t
b1100 |
0!
#50
b111111000 (
b111111000 J
b111111000 j
b111111000 m
b100000 \
b100 +
b100 E
b100 g
b0 3
b0 k
b0 u
b111111000000 Z
b100 /
b100 X
b100 d
b100 e
b0 4
b0 S
b0 h
b1000100001001010 >
b1000100001001010 c
b100 C
b100 x
b1000 B
b1000 w
b1010 @
b1010 v
b0 =
b0 O
b10 <
b10 N
b11 ?
b11 P
1!
#55
b101000010010000000100011 .
b101000010010000000100011 a
b10100 *
b10100 o
b10100 s
b10100 %
b10100 l
b10100 n
b10100 }
b10000 )
b10000 _
b10000 p
b10000 t
b10000 |
0!
#60
b111110000 ,
b111110000 F
b111110000 r
b111110000 2
b111110000 L
b111110000 Y
b111110000 q
b111110000 y
b111110000 (
b111110000 J
b111110000 j
b111110000 m
b0 +
b0 E
b0 g
b111110000000 Z
b0 /
b0 X
b0 d
b0 e
b1 0
b1 T
b1 b
0$
1&
b10100001001000000 >
b10100001001000000 c
b1010 C
b1010 x
b10 B
b10 w
b0 @
b0 v
b100011 ?
b100011 P
1!
#65
b11111111110000010000000100010011 .
b11111111110000010000000100010011 a
b11000 *
b11000 o
b11000 s
b11000 %
b11000 l
b11000 n
b11000 }
b10100 )
b10100 _
b10100 p
b10100 t
b10100 |
b100000 \
0!
#70
b111101100 (
b111101100 J
b111101100 j
b111101100 m
b11111111111111111111111111111100 +
b11111111111111111111111111111100 E
b11111111111111111111111111111100 g
b111101100 3
b111101100 k
b111101100 u
b100000 \
b111101100000 Z
b11111111111111111111111111111100 /
b11111111111111111111111111111100 X
b11111111111111111111111111111100 d
b11111111111111111111111111111100 e
b0 0
b0 T
b0 b
b1 4
b1 S
b1 h
1$
0&
b1111111111000001000000010 >
b1111111111000001000000010 c
b11100 C
b11100 x
b10 @
b10 v
b1111111 =
b1111111 O
b0 <
b0 N
b10011 ?
b10011 P
1!
#75
b10100010011 .
b10100010011 a
b11100 *
b11100 o
b11100 s
b11100 %
b11100 l
b11100 n
b11100 }
b11000 )
b11000 _
b11000 p
b11000 t
b11000 |
0!
#80
b0 ,
b0 F
b0 r
b0 2
b0 L
b0 Y
b0 q
b0 y
b0 3
b0 k
b0 u
b0 (
b0 J
b0 j
b0 m
b100000 \
b0 +
b0 E
b0 g
b0 Z
b0 /
b0 X
b0 d
b0 e
b1010 >
b1010 c
b0 C
b0 x
b0 B
b0 w
b1010 @
b1010 v
b0 =
b0 O
1!
#85
b10000010010001100000011 .
b10000010010001100000011 a
b100000 *
b100000 o
b100000 s
b100000 %
b100000 l
b100000 n
b100000 }
b11100 )
b11100 _
b11100 p
b11100 t
b11100 |
0!
#90
b111101100 ,
b111101100 F
b111101100 r
b111101100 2
b111101100 L
b111101100 Y
b111101100 q
b111101100 y
b111110000 (
b111110000 J
b111110000 j
b111110000 m
b100000 \
b100 +
b100 E
b100 g
b111110000000 Z
b100 /
b100 X
b100 d
b100 e
b0 4
b0 S
b0 h
b1000001001000110 >
b1000001001000110 c
b100 C
b100 x
b10 B
b10 w
b110 @
b110 v
b10 <
b10 N
b11 ?
b11 P
1!
#95
b10000010000000100010011 .
b10000010000000100010011 a
b100100 *
b100100 o
b100100 s
b100100 %
b100100 l
b100100 n
b100100 }
b100000 )
b100000 _
b100000 p
b100000 t
b100000 |
0!
#100
b111110000 3
b111110000 k
b111110000 u
b1 4
b1 S
b1 h
b1000001000000010 >
b1000001000000010 c
b10 @
b10 v
b0 <
b0 N
b10011 ?
b10011 P
1!
#105
b110101000110000111001100011 .
b110101000110000111001100011 a
b101000 *
b101000 o
b101000 s
b101000 %
b101000 l
b101000 n
b101000 }
b100100 )
b100100 _
b100100 p
b100100 t
b100100 |
0!
#110
b10100000 *
b10100000 o
b10100000 s
19
b0 2
b0 L
b0 Y
b0 q
b0 y
b10100000 3
b10100000 k
b10100000 u
b10100000 (
b10100000 J
b10100000 j
b10100000 m
b100000 \
b1111100 +
b1111100 E
b1111100 g
b100100 ,
b100100 F
b100100 r
b1111100000 Z
b1111100 /
b1111100 X
b1111100 d
b1111100 e
b1000 :
b1000 M
b1000 Q
b10 0
b10 T
b10 b
15
0$
b11010100011000011100 >
b11010100011000011100 c
b1010 C
b1010 x
b110 B
b110 w
b11100 @
b11100 v
b11 =
b11 O
b1100011 ?
b1100011 P
1!
#115
b100000000010100010011 .
b100000000010100010011 a
b100011100 3
b100011100 k
b100011100 u
b100011100 *
b100011100 o
b100011100 s
b100011100 (
b100011100 J
b100011100 j
b100011100 m
b10100100 %
b10100100 l
b10100100 n
b10100100 }
b10100000 ,
b10100000 F
b10100000 r
b10100000 )
b10100000 _
b10100000 p
b10100000 t
b10100000 |
0!
#120
b1 3
b1 k
b1 u
b1 (
b1 J
b1 j
b1 m
b10100100 *
b10100100 o
b10100100 s
b100000 \
b1 +
b1 E
b1 g
b0 ,
b0 F
b0 r
09
b1000 Z
b1 /
b1 X
b1 d
b1 e
b0 0
b0 T
b0 b
1$
05
b0 :
b0 M
b0 Q
b10000000001010 >
b10000000001010 c
b1 C
b1 x
b0 B
b0 w
b1010 @
b1010 v
b0 =
b0 O
b10011 ?
b10011 P
1!
#125
b10000010010000010000011 .
b10000010010000010000011 a
b10101000 *
b10101000 o
b10101000 s
b10101000 %
b10101000 l
b10101000 n
b10101000 }
b10100100 )
b10100100 _
b10100100 p
b10100100 t
b10100100 |
0!
#130
b111110000 ,
b111110000 F
b111110000 r
b111110000 2
b111110000 L
b111110000 Y
b111110000 q
b111110000 y
b111110100 (
b111110100 J
b111110100 j
b111110100 m
b100000 \
b100 +
b100 E
b100 g
b0 3
b0 k
b0 u
b111110100000 Z
b100 /
b100 X
b100 d
b100 e
b0 4
b0 S
b0 h
b1000001001000001 >
b1000001001000001 c
b100 C
b100 x
b10 B
b10 w
b1 @
b1 v
b10 <
b10 N
b11 ?
b11 P
1!
#135
b110000010000000100010011 .
b110000010000000100010011 a
b10101100 *
b10101100 o
b10101100 s
b10101100 %
b10101100 l
b10101100 n
b10101100 }
b10101000 )
b10101000 _
b10101000 p
b10101000 t
b10101000 |
0!
#140
b111111100 (
b111111100 J
b111111100 j
b111111100 m
b100000 \
b1100 +
b1100 E
b1100 g
b111111100 3
b111111100 k
b111111100 u
b111111100000 Z
b1100 /
b1100 X
b1100 d
b1100 e
b1 4
b1 S
b1 h
b11000001000000010 >
b11000001000000010 c
b1100 C
b1100 x
b10 @
b10 v
b0 <
b0 N
b10011 ?
b10011 P
1!
#145
b10010010000000011 .
b10010010000000011 a
b10110000 *
b10110000 o
b10110000 s
b10110000 %
b10110000 l
b10110000 n
b10110000 }
b10101100 )
b10101100 _
b10101100 p
b10101100 t
b10101100 |
0!
#150
b111111100 ,
b111111100 F
b111111100 r
b111111100 2
b111111100 L
b111111100 Y
b111111100 q
b111111100 y
b111111100 (
b111111100 J
b111111100 j
b111111100 m
b100000 \
b0 +
b0 E
b0 g
b0 3
b0 k
b0 u
b111111100000 Z
b0 /
b0 X
b0 d
b0 e
b0 4
b0 S
b0 h
b1001001000 >
b1001001000 c
b0 C
b0 x
b1000 @
b1000 v
b10 <
b10 N
b11 ?
b11 P
1!
#155
b1000000011100111 .
b1000000011100111 a
b10110100 *
b10110100 o
b10110100 s
b10110100 %
b10110100 l
b10110100 n
b10110100 }
b10110000 )
b10110000 _
b10110000 p
b10110000 t
b10110000 |
0!
#160
b0 (
b0 J
b0 j
b0 m
b100000 \
b0 ,
b0 F
b0 r
b0 Z
b0 2
b0 L
b0 Y
b0 q
b0 y
b0 *
b0 o
b0 s
19
b10110100 3
b10110100 k
b10110100 u
b11111 :
b11111 M
b11111 Q
b11 4
b11 S
b11 h
b100000001 >
b100000001 c
b1 B
b1 w
b1 @
b1 v
b0 <
b0 N
b1100111 ?
b1100111 P
1!
#165
b1000000000010000110011 .
b1000000000010000110011 a
b100 3
b100 k
b100 u
b100 %
b100 l
b100 n
b100 }
b0 )
b0 _
b0 p
b0 t
b0 |
0!
#170
b111111100 (
b111111100 J
b111111100 j
b111111100 m
b111111100 +
b111111100 E
b111111100 g
b111111100 1
b111111100 K
b111111100 W
b111111100 f
b111111100 z
b111111100 3
b111111100 k
b111111100 u
b100 *
b100 o
b100 s
b100000 \
09
b10000 Z
b10 /
b10 X
b10 d
b10 e
b1 4
b1 S
b1 h
06
b0 :
b0 M
b0 Q
b100000000001000 >
b100000000001000 c
b10 C
b10 x
b0 B
b0 w
b1000 @
b1000 v
b110011 ?
b110011 P
1!
#175
b100010010000000100011 .
b100010010000000100011 a
b1000 *
b1000 o
b1000 s
b1000 %
b1000 l
b1000 n
b1000 }
b100 )
b100 _
b100 p
b100 t
b100 |
0!
#180
b1010110000 3
b1010110000 k
b1010110000 u
b1010110000 (
b1010110000 J
b1010110000 j
b1010110000 m
b10110100 +
b10110100 E
b10110100 g
b111111100 ,
b111111100 F
b111111100 r
b10110100 1
b10110100 K
b10110100 W
b10110100 f
b10110100 z
b111111100 2
b111111100 L
b111111100 Y
b111111100 q
b111111100 y
b111111100000 Z
b0 /
b0 X
b0 d
b0 e
b1 0
b1 T
b1 b
0$
1&
b10001001000000 >
b10001001000000 c
b1 C
b1 x
b10 B
b10 w
b0 @
b0 v
b10 <
b10 N
b100011 ?
b100011 P
1!
#185
b11111111110000010000000100010011 .
b11111111110000010000000100010011 a
b1100 *
b1100 o
b1100 s
b1100 %
b1100 l
b1100 n
b1100 }
b1000 )
b1000 _
b1000 p
b1000 t
b1000 |
b100000 \
0!
#190
b0 1
b0 K
b0 W
b0 f
b0 z
b111111000 3
b111111000 k
b111111000 u
b111111000 (
b111111000 J
b111111000 j
b111111000 m
b11111111111111111111111111111100 +
b11111111111111111111111111111100 E
b11111111111111111111111111111100 g
b100000 \
b111111000000 Z
b11111111111111111111111111111100 /
b11111111111111111111111111111100 X
b11111111111111111111111111111100 d
b11111111111111111111111111111100 e
b0 0
b0 T
b0 b
1$
16
0&
b1111111111000001000000010 >
b1111111111000001000000010 c
b11100 C
b11100 x
b10 @
b10 v
b1111111 =
b1111111 O
b0 <
b0 N
b10011 ?
b10011 P
1!
#195
b10001000010010100000011 .
b10001000010010100000011 a
b10000 *
b10000 o
b10000 s
b10000 %
b10000 l
b10000 n
b10000 }
b1100 )
b1100 _
b1100 p
b1100 t
b1100 |
0!
#200
b1000000000 (
b1000000000 J
b1000000000 j
b1000000000 m
b100000 \
b100 +
b100 E
b100 g
b0 3
b0 k
b0 u
b1000000000000 Z
b100 /
b100 X
b100 d
b100 e
b0 4
b0 S
b0 h
b1000100001001010 >
b1000100001001010 c
b100 C
b100 x
b1000 B
b1000 w
b1010 @
b1010 v
b0 =
b0 O
b10 <
b10 N
b11 ?
b11 P
1!
#205
b101000010010000000100011 .
b101000010010000000100011 a
b10100 *
b10100 o
b10100 s
b10100 %
b10100 l
b10100 n
b10100 }
b10000 )
b10000 _
b10000 p
b10000 t
b10000 |
0!
#210
b111111000 ,
b111111000 F
b111111000 r
b111111000 2
b111111000 L
b111111000 Y
b111111000 q
b111111000 y
b111111000 (
b111111000 J
b111111000 j
b111111000 m
b0 +
b0 E
b0 g
b111111000000 Z
b0 /
b0 X
b0 d
b0 e
b1 0
b1 T
b1 b
0$
1&
b10100001001000000 >
b10100001001000000 c
b1010 C
b1010 x
b10 B
b10 w
b0 @
b0 v
b100011 ?
b100011 P
1!
#215
b11111111110000010000000100010011 .
b11111111110000010000000100010011 a
b11000 *
b11000 o
b11000 s
b11000 %
b11000 l
b11000 n
b11000 }
b10100 )
b10100 _
b10100 p
b10100 t
b10100 |
b100000 \
0!
#220
b111110100 (
b111110100 J
b111110100 j
b111110100 m
b11111111111111111111111111111100 +
b11111111111111111111111111111100 E
b11111111111111111111111111111100 g
b111110100 3
b111110100 k
b111110100 u
b100000 \
b111110100000 Z
b11111111111111111111111111111100 /
b11111111111111111111111111111100 X
b11111111111111111111111111111100 d
b11111111111111111111111111111100 e
b0 0
b0 T
b0 b
b1 4
b1 S
b1 h
1$
0&
b1111111111000001000000010 >
b1111111111000001000000010 c
b11100 C
b11100 x
b10 @
b10 v
b1111111 =
b1111111 O
b0 <
b0 N
b10011 ?
b10011 P
1!
#225
b10100010011 .
b10100010011 a
b11100 *
b11100 o
b11100 s
b11100 %
b11100 l
b11100 n
b11100 }
b11000 )
b11000 _
b11000 p
b11000 t
b11000 |
0!
#230
b0 ,
b0 F
b0 r
b0 2
b0 L
b0 Y
b0 q
b0 y
b0 3
b0 k
b0 u
b0 (
b0 J
b0 j
b0 m
b100000 \
b0 +
b0 E
b0 g
b0 Z
b0 /
b0 X
b0 d
b0 e
b1010 >
b1010 c
b0 C
b0 x
b0 B
b0 w
b1010 @
b1010 v
b0 =
b0 O
1!
#235
b10000010010001100000011 .
b10000010010001100000011 a
b100000 *
b100000 o
b100000 s
b100000 %
b100000 l
b100000 n
b100000 }
b11100 )
b11100 _
b11100 p
b11100 t
b11100 |
0!
#240
b111110100 ,
b111110100 F
b111110100 r
b111110100 2
b111110100 L
b111110100 Y
b111110100 q
b111110100 y
b111111000 (
b111111000 J
b111111000 j
b111111000 m
b100000 \
b100 +
b100 E
b100 g
b111111000000 Z
b100 /
b100 X
b100 d
b100 e
b0 4
b0 S
b0 h
b1000001001000110 >
b1000001001000110 c
b100 C
b100 x
b10 B
b10 w
b110 @
b110 v
b10 <
b10 N
b11 ?
b11 P
1!
#245
b10000010000000100010011 .
b10000010000000100010011 a
b100100 *
b100100 o
b100100 s
b100100 %
b100100 l
b100100 n
b100100 }
b100000 )
b100000 _
b100000 p
b100000 t
b100000 |
0!
#250
b111111000 3
b111111000 k
b111111000 u
b1 4
b1 S
b1 h
b1000001000000010 >
b1000001000000010 c
b10 @
b10 v
b0 <
b0 N
b10011 ?
b10011 P
1!
#255
b110101000110000111001100011 .
b110101000110000111001100011 a
b101000 *
b101000 o
b101000 s
b101000 %
b101000 l
b101000 n
b101000 }
b100100 )
b100100 _
b100100 p
b100100 t
b100100 |
0!
#260
b10100000 *
b10100000 o
b10100000 s
19
b0 2
b0 L
b0 Y
b0 q
b0 y
b10100000 3
b10100000 k
b10100000 u
b10100000 (
b10100000 J
b10100000 j
b10100000 m
b100000 \
b1111100 +
b1111100 E
b1111100 g
b100100 ,
b100100 F
b100100 r
b1111100000 Z
b1111100 /
b1111100 X
b1111100 d
b1111100 e
b1000 :
b1000 M
b1000 Q
b10 0
b10 T
b10 b
15
0$
b11010100011000011100 >
b11010100011000011100 c
b1010 C
b1010 x
b110 B
b110 w
b11100 @
b11100 v
b11 =
b11 O
b1100011 ?
b1100011 P
1!
#265
b100000000010100010011 .
b100000000010100010011 a
b100011100 3
b100011100 k
b100011100 u
b100011100 *
b100011100 o
b100011100 s
b100011100 (
b100011100 J
b100011100 j
b100011100 m
b10100100 %
b10100100 l
b10100100 n
b10100100 }
b10100000 ,
b10100000 F
b10100000 r
b10100000 )
b10100000 _
b10100000 p
b10100000 t
b10100000 |
0!
#270
b10110100 1
b10110100 K
b10110100 W
b10110100 f
b10110100 z
b1 3
b1 k
b1 u
b1 (
b1 J
b1 j
b1 m
b10100100 *
b10100100 o
b10100100 s
b100000 \
b1 +
b1 E
b1 g
b0 ,
b0 F
b0 r
09
b1000 Z
b1 /
b1 X
b1 d
b1 e
b0 0
b0 T
b0 b
1$
05
b0 :
b0 M
b0 Q
b10000000001010 >
b10000000001010 c
b1 C
b1 x
b0 B
b0 w
b1010 @
b1010 v
b0 =
b0 O
b10011 ?
b10011 P
1!
#275
b10000010010000010000011 .
b10000010010000010000011 a
b10101000 *
b10101000 o
b10101000 s
b10101000 %
b10101000 l
b10101000 n
b10101000 }
b10100100 )
b10100100 _
b10100100 p
b10100100 t
b10100100 |
0!
#280
b10110100 -
b10110100 ^
b10110100 i
b10110100 ]
b111111000 ,
b111111000 F
b111111000 r
b0 1
b0 K
b0 W
b0 f
b0 z
b111111000 2
b111111000 L
b111111000 Y
b111111000 q
b111111000 y
b111111100 (
b111111100 J
b111111100 j
b111111100 m
b100000 \
b100 +
b100 E
b100 g
b10110100 3
b10110100 k
b10110100 u
b111111100000 Z
b100 /
b100 X
b100 d
b100 e
b0 4
b0 S
b0 h
b1000001001000001 >
b1000001001000001 c
b100 C
b100 x
b10 B
b10 w
b1 @
b1 v
b10 <
b10 N
b11 ?
b11 P
1!
#285
b110000010000000100010011 .
b110000010000000100010011 a
b10101100 *
b10101100 o
b10101100 s
b10101100 %
b10101100 l
b10101100 n
b10101100 }
b10101000 )
b10101000 _
b10101000 p
b10101000 t
b10101000 |
0!
#290
b1000000100 (
b1000000100 J
b1000000100 j
b1000000100 m
b0 -
b0 ^
b0 i
b0 ]
b100000 \
b1100 +
b1100 E
b1100 g
b1000000100 3
b1000000100 k
b1000000100 u
b1000000100000 Z
b1100 /
b1100 X
b1100 d
b1100 e
b1 4
b1 S
b1 h
b11000001000000010 >
b11000001000000010 c
b1100 C
b1100 x
b10 @
b10 v
b0 <
b0 N
b10011 ?
b10011 P
1!
#295
b10010010000000011 .
b10010010000000011 a
b10110000 *
b10110000 o
b10110000 s
b10110000 %
b10110000 l
b10110000 n
b10110000 }
b10101100 )
b10101100 _
b10101100 p
b10101100 t
b10101100 |
0!
#300
b1000000100 ,
b1000000100 F
b1000000100 r
b1000000100 2
b1000000100 L
b1000000100 Y
b1000000100 q
b1000000100 y
b1000000100 (
b1000000100 J
b1000000100 j
b1000000100 m
b100000 \
b0 +
b0 E
b0 g
b0 3
b0 k
b0 u
b1000000100000 Z
b0 /
b0 X
b0 d
b0 e
b0 4
b0 S
b0 h
b1001001000 >
b1001001000 c
b0 C
b0 x
b1000 @
b1000 v
b10 <
b10 N
b11 ?
b11 P
1!
#305
b1000000011100111 .
b1000000011100111 a
b10110100 *
b10110100 o
b10110100 s
b10110100 %
b10110100 l
b10110100 n
b10110100 }
b10110000 )
b10110000 _
b10110000 p
b10110000 t
b10110000 |
0!
#310
b10110100 (
b10110100 J
b10110100 j
b10110100 m
b100000 \
b10110100 ,
b10110100 F
b10110100 r
b10110100000 Z
b10110100 2
b10110100 L
b10110100 Y
b10110100 q
b10110100 y
b10110100 *
b10110100 o
b10110100 s
19
b10110100 3
b10110100 k
b10110100 u
b11111 :
b11111 M
b11111 Q
b11 4
b11 S
b11 h
b100000001 >
b100000001 c
b1 B
b1 w
b1 @
b1 v
b0 <
b0 N
b1100111 ?
b1100111 P
1!
#315
b100000010010000000100011 .
b100000010010000000100011 a
b10111000 3
b10111000 k
b10111000 u
b10111000 %
b10111000 l
b10111000 n
b10111000 }
b10110100 )
b10110100 _
b10110100 p
b10110100 t
b10110100 |
0!
#320
b1000000100 (
b1000000100 J
b1000000100 j
b1000000100 m
b1000000100 ,
b1000000100 F
b1000000100 r
b1000000100000 Z
b1000000100 2
b1000000100 L
b1000000100 Y
b1000000100 q
b1000000100 y
b10111000 *
b10111000 o
b10111000 s
09
b1 0
b1 T
b1 b
0$
1&
b0 :
b0 M
b0 Q
b10000001001000000 >
b10000001001000000 c
b1000 C
b1000 x
b10 B
b10 w
b0 @
b0 v
b10 <
b10 N
b100011 ?
b100011 P
1!
#325
b11111111110000010000000100010011 .
b11111111110000010000000100010011 a
b10111100 3
b10111100 k
b10111100 u
b10111100 *
b10111100 o
b10111100 s
b10111100 %
b10111100 l
b10111100 n
b10111100 }
b10111000 )
b10111000 _
b10111000 p
b10111000 t
b10111000 |
b100000 \
0!
#330
b1000000000 (
b1000000000 J
b1000000000 j
b1000000000 m
b1000000000 3
b1000000000 k
b1000000000 u
b11111111111111111111111111111100 +
b11111111111111111111111111111100 E
b11111111111111111111111111111100 g
b100000 \
b1000000000000 Z
b11111111111111111111111111111100 /
b11111111111111111111111111111100 X
b11111111111111111111111111111100 d
b11111111111111111111111111111100 e
b0 0
b0 T
b0 b
b1 4
b1 S
b1 h
1$
0&
b1111111111000001000000010 >
b1111111111000001000000010 c
b11100 C
b11100 x
b10 @
b10 v
b1111111 =
b1111111 O
b0 <
b0 N
b10011 ?
b10011 P
1!
#335
b11100000000010100010011 .
b11100000000010100010011 a
b11000000 *
b11000000 o
b11000000 s
b11000000 %
b11000000 l
b11000000 n
b11000000 }
b10111100 )
b10111100 _
b10111100 p
b10111100 t
b10111100 |
0!
#340
b0 ,
b0 F
b0 r
b0 2
b0 L
b0 Y
b0 q
b0 y
b111 3
b111 k
b111 u
b111 (
b111 J
b111 j
b111 m
b100000 \
b111 +
b111 E
b111 g
b111000 Z
b111 /
b111 X
b111 d
b111 e
b1110000000001010 >
b1110000000001010 c
b111 C
b111 x
b0 B
b0 w
b1010 @
b1010 v
b0 =
b0 O
1!
#345
b101000010010000000100011 .
b101000010010000000100011 a
b11000100 *
b11000100 o
b11000100 s
b11000100 %
b11000100 l
b11000100 n
b11000100 }
b11000000 )
b11000000 _
b11000000 p
b11000000 t
b11000000 |
0!
#350
b1000000000 ,
b1000000000 F
b1000000000 r
b111 1
b111 K
b111 W
b111 f
b111 z
b1000000000 2
b1000000000 L
b1000000000 Y
b1000000000 q
b1000000000 y
b1000000000 3
b1000000000 k
b1000000000 u
b1000000000 (
b1000000000 J
b1000000000 j
b1000000000 m
b0 +
b0 E
b0 g
b1000000000000 Z
b0 /
b0 X
b0 d
b0 e
b1 0
b1 T
b1 b
0$
1&
b10100001001000000 >
b10100001001000000 c
b1010 C
b1010 x
b10 B
b10 w
b0 @
b0 v
b10 <
b10 N
b100011 ?
b100011 P
1!
#355
b11111111110000010000000100010011 .
b11111111110000010000000100010011 a
b11001000 *
b11001000 o
b11001000 s
b11001000 %
b11001000 l
b11001000 n
b11001000 }
b11000100 )
b11000100 _
b11000100 p
b11000100 t
b11000100 |
b100000 \
0!
