CPU_TB.vcd
$date
	Sat Nov 25 16:15:35 2023
$end
$version
	Icarus Verilog
$end
$timescale
	1ns
$end
$scope module CPU_TB $end
$var reg 1 ! clk $end
$var reg 1 " reset $end
$var reg 1 # rst $end
$scope module cpu $end
$var wire 1 ! clk $end
$var wire 1 " reset $end
$var wire 1 # rst $end
$var wire 1 $ we_memwb $end
$var wire 1 % we_idex $end
$var wire 1 & we_exmem $end
$var wire 1 ' we $end
$var wire 32 ( sum_out_memwb [31:0] $end
$var wire 32 ) sum_out_ifid [31:0] $end
$var wire 32 * sum_out_idex [31:0] $end
$var wire 32 + sum_out_exmem [31:0] $end
$var wire 32 , sum_out [31:0] $end
$var wire 1 - store_idex $end
$var wire 1 . store_exmem $end
$var wire 1 / store $end
$var wire 3 0 salida_funct3_idex [2:0] $end
$var wire 3 1 salida_funct3 [2:0] $end
$var wire 32 2 result_memwb [31:0] $end
$var wire 32 3 result_exmem [31:0] $end
$var wire 32 4 result [31:0] $end
$var wire 5 5 rd_memwb [4:0] $end
$var wire 5 6 rd_idex [4:0] $end
$var wire 5 7 rd_exmem [4:0] $end
$var wire 32 8 pc_out_ifid [31:0] $end
$var wire 32 9 pc_out_idex [31:0] $end
$var wire 32 : pc_out [31:0] $end
$var wire 32 ; pc_in [31:0] $end
$var wire 32 < operand2 [31:0] $end
$var wire 32 = operand1 [31:0] $end
$var wire 32 > load_data [31:0] $end
$var wire 32 ? loadData_memwb [31:0] $end
$var wire 32 @ instruction_ifid [31:0] $end
$var wire 32 A instruction [31:0] $end
$var wire 32 B imm_idex [31:0] $end
$var wire 32 C imm_exmem [31:0] $end
$var wire 32 D imm32 [31:0] $end
$var wire 3 E funct_imm [2:0] $end
$var wire 32 F data2_idex [31:0] $end
$var wire 32 G data2_exmem [31:0] $end
$var wire 32 H data2 [31:0] $end
$var wire 32 I data1_idex [31:0] $end
$var wire 32 J data1_exmem [31:0] $end
$var wire 32 K data1 [31:0] $end
$var wire 32 L data [31:0] $end
$var wire 2 M controlRF_memwb [1:0] $end
$var wire 2 N controlRF_idex [1:0] $end
$var wire 2 O controlRF_exmem [1:0] $end
$var wire 2 P controlRF [1:0] $end
$var wire 1 Q controlOp1_idex $end
$var wire 1 R controlOp1 $end
$var wire 1 S controlALU_idex $end
$var wire 1 T controlALU $end
$var wire 3 U Type_dm_idex [2:0] $end
$var wire 3 V Type_dm_exmem [2:0] $end
$var wire 3 W Type_dm [2:0] $end
$var wire 1 X Type_alu_dm_idex $end
$var wire 1 Y Type_alu_dm $end
$var wire 1 Z NextPCSrc $end
$var wire 5 [ BrOp_idex [4:0] $end
$var wire 5 \ BrOp [4:0] $end
$var parameter 32 ] TAM $end
$var reg 3 ^ funct3 [2:0] $end
$var reg 7 _ funct7 [6:0] $end
$var reg 25 ` immediate [24:0] $end
$var reg 7 a opcode [6:0] $end
$var reg 5 b rd [4:0] $end
$var reg 1 c read $end
$var reg 5 d rs1 [4:0] $end
$var reg 5 e rs2 [4:0] $end
$scope module alu $end
$var wire 1 f clk $end
$var wire 32 g operand2 [31:0] $end
$var wire 32 h operand1 [31:0] $end
$var wire 3 i funct3_alu [2:0] $end
$var wire 1 X Type_alu $end
$var reg 1 j bit_significativo $end
$var reg 32 k conteo [31:0] $end
$var reg 32 l result [31:0] $end
$upscope $end
$scope module branch $end
$var wire 32 m RUrs2 [31:0] $end
$var wire 32 n RUrs1 [31:0] $end
$var wire 5 o BrOp [4:0] $end
$var reg 1 Z NextPCSrc $end
$upscope $end
$scope module cu $end
$var wire 3 p funct3 [2:0] $end
$var wire 7 q funct7 [6:0] $end
$var wire 7 r opcode [6:0] $end
$var reg 5 s BrOp [4:0] $end
$var reg 1 Y Type_alu $end
$var reg 3 t Type_dm [2:0] $end
$var reg 1 T controlALU $end
$var reg 1 R controlOp1 $end
$var reg 2 u controlRF [1:0] $end
$var reg 3 v funct_imm [2:0] $end
$var reg 3 w salida_funct3 [2:0] $end
$var reg 1 / store $end
$var reg 1 ' we $end
$upscope $end
$scope module dm $end
$var wire 1 ! clk $end
$var wire 32 x store_data [31:0] $end
$var wire 1 . store $end
$var wire 32 y offset [31:0] $end
$var wire 32 z direccion [31:0] $end
$var wire 32 { address [31:0] $end
$var wire 3 | Type [2:0] $end
$var parameter 32 } TAM $end
$var reg 32 ~ count [31:0] $end
$var reg 32 !" data [31:0] $end
$var reg 32 "" load_data [31:0] $end
$upscope $end
$scope module exmem $end
$var wire 1 ! clk $end
$var wire 32 #" result_in [31:0] $end
$var wire 1 % we_in $end
$var wire 32 $" sum_out_in [31:0] $end
$var wire 1 - store_in $end
$var wire 5 %" rd_in [4:0] $end
$var wire 32 &" imm_in [31:0] $end
$var wire 32 '" data2_in [31:0] $end
$var wire 32 (" data1_in [31:0] $end
$var wire 2 )" controlRF_in [1:0] $end
$var wire 3 *" Type_dm_in [2:0] $end
$var reg 3 +" Type_dm_out [2:0] $end
$var reg 2 ," controlRF_out [1:0] $end
$var reg 32 -" data1_out [31:0] $end
$var reg 32 ." data2_out [31:0] $end
$var reg 32 /" imm_out [31:0] $end
$var reg 5 0" rd_out [4:0] $end
$var reg 32 1" result_out [31:0] $end
$var reg 1 . store_out $end
$var reg 32 2" sum_out_out [31:0] $end
$var reg 1 & we_out $end
$upscope $end
$scope module idex $end
$var wire 5 3" BrOp_in [4:0] $end
$var wire 1 Y Type_alu_in $end
$var wire 3 4" Type_dm_in [2:0] $end
$var wire 1 ! clk $end
$var wire 1 T controlALU_in $end
$var wire 1 R controlOp1_in $end
$var wire 2 5" controlRF_in [1:0] $end
$var wire 3 6" funct3_alu_in [2:0] $end
$var wire 5 7" rd_in [4:0] $end
$var wire 1 / store_in $end
$var wire 1 ' we_in $end
$var wire 32 8" sum_out_in [31:0] $end
$var wire 32 9" pc_out_in [31:0] $end
$var wire 32 :" imm_in [31:0] $end
$var wire 32 ;" data2_in [31:0] $end
$var wire 32 <" data1_in [31:0] $end
$var reg 5 =" BrOp_out [4:0] $end
$var reg 1 X Type_alu_out $end
$var reg 3 >" Type_dm_out [2:0] $end
$var reg 1 S controlALU_out $end
$var reg 1 Q controlOp1_out $end
$var reg 2 ?" controlRF_out [1:0] $end
$var reg 32 @" data1_out [31:0] $end
$var reg 32 A" data2_out [31:0] $end
$var reg 3 B" funct3_alu_out [2:0] $end
$var reg 32 C" imm_out [31:0] $end
$var reg 32 D" pc_out_out [31:0] $end
$var reg 5 E" rd_out [4:0] $end
$var reg 1 - store_out $end
$var reg 32 F" sum_out_out [31:0] $end
$var reg 1 % we_out $end
$upscope $end
$scope module ifid $end
$var wire 1 ! clk $end
$var wire 32 G" sum_out_in [31:0] $end
$var wire 32 H" pc_out_in [31:0] $end
$var wire 32 I" instruction_in [31:0] $end
$var reg 32 J" instruction_out [31:0] $end
$var reg 32 K" pc_out_out [31:0] $end
$var reg 32 L" sum_out_out [31:0] $end
$upscope $end
$scope module im $end
$var wire 32 M" pc [31:0] $end
$var parameter 32 N" TAM $end
$var reg 32 O" instruction [31:0] $end
$upscope $end
$scope module imm $end
$var wire 3 P" funct [2:0] $end
$var wire 25 Q" immediate [24:0] $end
$var reg 32 R" imm32 [31:0] $end
$upscope $end
$scope module memwb $end
$var wire 1 ! clk $end
$var wire 2 S" controlRF_in [1:0] $end
$var wire 32 T" loadData_in [31:0] $end
$var wire 5 U" rd_in [4:0] $end
$var wire 32 V" result_in [31:0] $end
$var wire 32 W" sum_out_in [31:0] $end
$var wire 1 & we_in $end
$var reg 2 X" controlRF_out [1:0] $end
$var reg 32 Y" loadData_out [31:0] $end
$var reg 5 Z" rd_out [4:0] $end
$var reg 32 [" result_out [31:0] $end
$var reg 32 \" sum_out_out [31:0] $end
$var reg 1 $ we_out $end
$upscope $end
$scope module mux1 $end
$var wire 1 S control $end
$var wire 32 ]" entrada1 [31:0] $end
$var wire 32 ^" entrada2 [31:0] $end
$var reg 32 _" salida [31:0] $end
$upscope $end
$scope module mux2 $end
$var wire 2 `" control [1:0] $end
$var wire 32 a" entrada1 [31:0] $end
$var wire 32 b" entrada2 [31:0] $end
$var wire 32 c" entrada3 [31:0] $end
$var wire 32 d" salida [31:0] $end
$upscope $end
$scope module mux3 $end
$var wire 1 Z control $end
$var wire 32 e" entrada2 [31:0] $end
$var wire 32 f" entrada1 [31:0] $end
$var reg 32 g" salida [31:0] $end
$upscope $end
$scope module mux4 $end
$var wire 1 Q control $end
$var wire 32 h" entrada1 [31:0] $end
$var wire 32 i" entrada2 [31:0] $end
$var reg 32 j" salida [31:0] $end
$upscope $end
$scope module pc $end
$var wire 1 ! clk $end
$var wire 32 k" pc_in [31:0] $end
$var wire 1 " reset $end
$var reg 32 l" pc_out [31:0] $end
$upscope $end
$scope module rf $end
$var wire 1 $ WriteEnable $end
$var wire 1 ! clk $end
$var wire 32 m" data [31:0] $end
$var wire 5 n" rd [4:0] $end
$var wire 5 o" rs1 [4:0] $end
$var wire 5 p" rs2 [4:0] $end
$var wire 1 # rst $end
$var reg 32 q" data1 [31:0] $end
$var reg 32 r" data2 [31:0] $end
$var reg 32 s" i [31:0] $end
$upscope $end
$scope module sumador $end
$var wire 32 t" pc [31:0] $end
$var reg 32 u" sum_out [31:0] $end
$upscope $end
$upscope $end
$upscope $end
$enddefinitions $end
$comment Show the parameter values. $end
$dumpall
b1111111111 N"
b1111111111 }
b1111111111 ]
$end
#0
$dumpvars
bx u"
bx t"
bx s"
bx r"
bx q"
bx p"
bx o"
bx n"
bx m"
bx l"
bx k"
bx j"
bx i"
bx h"
bx g"
bx f"
bx e"
bx d"
bx c"
bx b"
bx a"
bx `"
bx _"
bx ^"
bx ]"
bx \"
bx ["
bx Z"
bx Y"
bx X"
bx W"
bx V"
bx U"
bx T"
bx S"
bx R"
bx Q"
bx P"
bx O"
bx M"
bx L"
bx K"
bx J"
bx I"
bx H"
bx G"
bx F"
bx E"
bx D"
bx C"
bx B"
bx A"
bx @"
bx ?"
bx >"
bx ="
bx <"
bx ;"
bx :"
bx 9"
bx 8"
bx 7"
bx 6"
bx 5"
bx 4"
bx 3"
bx 2"
bx 1"
bx 0"
bx /"
bx ."
bx -"
bx ,"
bx +"
bx *"
bx )"
bx ("
bx '"
bx &"
bx %"
bx $"
bx #"
bx ""
bx !"
bx ~
bx |
bx {
bx z
bx y
bx x
bx w
bx v
bx u
bx t
bx s
bx r
bx q
bx p
bx o
bx n
bx m
bx l
bx k
xj
bx i
bx h
bx g
zf
bx e
bx d
1c
bx b
bx a
bx `
bx _
bx ^
bx \
bx [
xZ
xY
xX
bx W
bx V
bx U
xT
xS
xR
xQ
bx P
bx O
bx N
bx M
bx L
bx K
bx J
bx I
bx H
bx G
bx F
bx E
bx D
bx C
bx B
bx A
bx @
bx ?
bx >
bx =
bx <
bx ;
bx :
bx 9
bx 8
bx 7
bx 6
bx 5
bx 4
bx 3
bx 2
bx 1
bx 0
x/
x.
x-
bx ,
bx +
bx *
bx )
bx (
x'
x&
x%
x$
1#
x"
1!
$end
#5
0!
#10
1!
1"
0#
#15
b1000000000010000110011 A
b1000000000010000110011 I"
b1000000000010000110011 O"
b0 ;
b0 g"
b0 k"
b100 ,
b100 G"
b100 f"
b100 u"
b0 :
b0 H"
b0 M"
b0 l"
b0 t"
0!
#20
b100 )
b100 8"
b100 L"
b0 8
b0 9"
b0 K"
b1000000000010000110011 @
b1000000000010000110011 J"
1!
0"
#25
0Y
b0 1
b0 w
b0 6"
b1 P
b1 u
b1 5"
1'
0R
0T
b0 \
b0 s
b0 3"
0/
b100000000001000 `
b100000000001000 Q"
b10 e
b10 p"
b0 d
b0 o"
b1000 b
b1000 7"
b1000 n"
b0 _
b0 q
b0 ^
b0 p
b110011 a
b110011 r
0!
#30
b100 ;
b100 g"
b100 k"
0Z
0Q
b0 [
b0 o
b0 ="
0X
b0 0
b0 i
b0 B"
0-
0S
b1 N
b1 )"
b1 ?"
1%
b1000 6
b1000 %"
b1000 E"
b0 9
b0 D"
b0 i"
b100 *
b100 $"
b100 F"
b111110100 H
b111110100 ;"
b111110100 r"
b0 K
b0 <"
b0 q"
1!
#35
b100010010000000100011 A
b100010010000000100011 I"
b100010010000000100011 O"
b1000 ;
b1000 g"
b1000 k"
b1000 ,
b1000 G"
b1000 f"
b1000 u"
b100 :
b100 H"
b100 M"
b100 l"
b100 t"
0!
#40
b111110100 4
b111110100 l
b111110100 #"
b111110100 <
b111110100 g
b111110100 _"
b0 =
b0 h
b0 j"
b1000 )
b1000 8"
b1000 L"
b100 8
b100 9"
b100 K"
b100010010000000100011 @
b100010010000000100011 J"
b111110100 F
b111110100 m
b111110100 '"
b111110100 A"
b111110100 ]"
b0 I
b0 n
b0 ("
b0 @"
b0 h"
0.
b1 O
b1 ,"
b1 S"
1&
b1000 7
b1000 0"
b1000 U"
b100 +
b100 2"
b100 W"
1!
#45
b11111111110000010000000100010011 A
b11111111110000010000000100010011 I"
b11111111110000010000000100010011 O"
b1100 ;
b1100 g"
b1100 k"
b1100 ,
b1100 G"
b1100 f"
b1100 u"
b1000 :
b1000 H"
b1000 M"
b1000 l"
b1000 t"
b0 D
b0 :"
b0 R"
b10 W
b10 t
b10 4"
b1 E
b1 v
b1 P"
0'
1/
b10001001000000 `
b10001001000000 Q"
b1 e
b1 p"
b10 d
b10 o"
b0 b
b0 7"
b0 n"
b10 ^
b10 p
b100011 a
b100011 r
0!
#50
b1000 5
b1000 Z"
1$
b1 M
b1 X"
b1 `"
b100 (
b100 \"
b100 c"
b111110100 G
b111110100 x
b111110100 ."
b0 J
b0 z
b0 -"
b111110100 3
b111110100 1"
b111110100 V"
b111110100 e"
b10 U
b10 *"
b10 >"
1-
0%
b0 6
b0 %"
b0 E"
b0 B
b0 &"
b0 C"
b0 ^"
b100 9
b100 D"
b100 i"
b1000 *
b1000 $"
b1000 F"
b1100 )
b1100 8"
b1100 L"
b1000 8
b1000 9"
b1000 K"
b11111111110000010000000100010011 @
b11111111110000010000000100010011 J"
b0 H
b0 ;"
b0 r"
b111110100 K
b111110100 <"
b111110100 q"
1!
#55
b10001000010010100000011 A
b10001000010010100000011 I"
b10001000010010100000011 O"
b10000 ;
b10000 g"
b10000 k"
b10000 ,
b10000 G"
b10000 f"
b10000 u"
b1100 :
b1100 H"
b1100 M"
b1100 l"
b1100 t"
b11111111111111111111111111111100 D
b11111111111111111111111111111100 :"
b11111111111111111111111111111100 R"
b0 E
b0 v
b0 P"
1'
1T
0/
b1111111111000001000000010 `
b1111111111000001000000010 Q"
b11100 e
b11100 p"
b10 b
b10 7"
b10 n"
b1111111 _
b1111111 q
b0 ^
b0 p
b10011 a
b10011 r
0!
#60
b111110000 4
b111110000 l
b111110000 #"
b111110100 L
b111110100 d"
b111110100 m"
b11111111111111111111111111111100 <
b11111111111111111111111111111100 g
b11111111111111111111111111111100 _"
b111110100 =
b111110100 h
b111110100 j"
bx K
bx <"
bx q"
b10000 )
b10000 8"
b10000 L"
b1100 8
b1100 9"
b1100 K"
b10001000010010100000011 @
b10001000010010100000011 J"
0-
1S
1%
b10 6
b10 %"
b10 E"
b11111111111111111111111111111100 B
b11111111111111111111111111111100 &"
b11111111111111111111111111111100 C"
b11111111111111111111111111111100 ^"
b0 F
b0 m
b0 '"
b0 A"
b0 ]"
b111110100 I
b111110100 n
b111110100 ("
b111110100 @"
b111110100 h"
b1000 9
b1000 D"
b1000 i"
b1100 *
b1100 $"
b1100 F"
1.
b10 V
b10 |
b10 +"
0&
b0 7
b0 0"
b0 U"
b0 {
b0 C
b0 y
b0 /"
b1000 +
b1000 2"
b1000 W"
b111110100 2
b111110100 ["
b111110100 b"
1!
#65
b101000010010000000100011 A
b101000010010000000100011 I"
b101000010010000000100011 O"
b10100 ;
b10100 g"
b10100 k"
b10100 ,
b10100 G"
b10100 f"
b10100 u"
b10000 :
b10000 H"
b10000 M"
b10000 l"
b10000 t"
b100 D
b100 :"
b100 R"
b0 P
b0 u
b0 5"
b100000 ~
b1000100001001010 `
b1000100001001010 Q"
b100 e
b100 p"
b1000 d
b1000 o"
b1010 b
b1010 7"
b1010 n"
b0 _
b0 q
b10 ^
b10 p
b11 a
b11 r
0!
#70
bx 4
bx l
bx #"
b0 >
b0 ""
b0 T"
b0 !"
b100000 ~
b100 <
b100 g
b100 _"
bx =
bx h
bx j"
b0 5
b0 Z"
0$
b1000 (
b1000 \"
b1000 c"
0.
b0 G
b0 x
b0 ."
b111110100 J
b111110100 z
b111110100 -"
1&
b10 7
b10 0"
b10 U"
b111110000000 {
b11111111111111111111111111111100 C
b11111111111111111111111111111100 y
b11111111111111111111111111111100 /"
b111110000 3
b111110000 1"
b111110000 V"
b111110000 e"
b1100 +
b1100 2"
b1100 W"
b0 N
b0 )"
b0 ?"
b1010 6
b1010 %"
b1010 E"
b100 B
b100 &"
b100 C"
b100 ^"
bx I
bx n
bx ("
bx @"
bx h"
b1100 9
b1100 D"
b1100 i"
b10000 *
b10000 $"
b10000 F"
b10100 )
b10100 8"
b10100 L"
b10000 8
b10000 9"
b10000 K"
b101000010010000000100011 @
b101000010010000000100011 J"
b0 K
b0 <"
b0 q"
1!
#75
b11111111110000010000000100010011 A
b11111111110000010000000100010011 I"
b11111111110000010000000100010011 O"
b11000 ;
b11000 g"
b11000 k"
b11000 ,
b11000 G"
b11000 f"
b11000 u"
b10100 :
b10100 H"
b10100 M"
b10100 l"
b10100 t"
b0 D
b0 :"
b0 R"
b1 E
b1 v
b1 P"
0'
1/
b10100001001000000 `
b10100001001000000 Q"
b1010 e
b1010 p"
b10 d
b10 o"
b0 b
b0 7"
b0 n"
b100011 a
b100011 r
0!
#80
b0 4
b0 l
b0 #"
b111110000 L
b111110000 d"
b111110000 m"
b0 <
b0 g
b0 _"
b0 =
b0 h
b0 j"
b100000 ~
b111110100 H
b111110100 ;"
b111110100 r"
bx K
bx <"
bx q"
b11000 )
b11000 8"
b11000 L"
b10100 8
b10100 9"
b10100 K"
b11111111110000010000000100010011 @
b11111111110000010000000100010011 J"
1-
0%
b0 6
b0 %"
b0 E"
b0 B
b0 &"
b0 C"
b0 ^"
b0 I
b0 n
b0 ("
b0 @"
b0 h"
b10000 9
b10000 D"
b10000 i"
b10100 *
b10100 $"
b10100 F"
bx J
bx z
bx -"
b0 O
b0 ,"
b0 S"
b1010 7
b1010 0"
b1010 U"
bx {
b100 C
b100 y
b100 /"
bx 3
bx 1"
bx V"
bx e"
b10000 +
b10000 2"
b10000 W"
b10 5
b10 Z"
1$
b111110000 2
b111110000 ["
b111110000 b"
b1100 (
b1100 \"
b1100 c"
b0 ?
b0 Y"
b0 a"
1!
#85
b10100010011 A
b10100010011 I"
b10100010011 O"
b11100 ;
b11100 g"
b11100 k"
b11100 ,
b11100 G"
b11100 f"
b11100 u"
b11000 :
b11000 H"
b11000 M"
b11000 l"
b11000 t"
b11111111111111111111111111111100 D
b11111111111111111111111111111100 :"
b11111111111111111111111111111100 R"
b0 E
b0 v
b0 P"
b1 P
b1 u
b1 5"
1'
0/
b1111111111000001000000010 `
b1111111111000001000000010 Q"
b11100 e
b11100 p"
b10 b
b10 7"
b10 n"
b1111111 _
b1111111 q
b0 ^
b0 p
b10011 a
b10011 r
0!
#90
bx 4
bx l
bx #"
b0 L
b0 d"
b0 m"
b11111111111111111111111111111100 <
b11111111111111111111111111111100 g
b11111111111111111111111111111100 _"
bx =
bx h
bx j"
b1010 5
b1010 Z"
b0 M
b0 X"
b0 `"
bx 2
bx ["
bx b"
b10000 (
b10000 \"
b10000 c"
1.
b0 {
b0 J
b0 z
b0 -"
0&
b0 7
b0 0"
b0 U"
b0 C
b0 y
b0 /"
b0 3
b0 1"
b0 V"
b0 e"
b10100 +
b10100 2"
b10100 W"
0-
b1 N
b1 )"
b1 ?"
1%
b10 6
b10 %"
b10 E"
b11111111111111111111111111111100 B
b11111111111111111111111111111100 &"
b11111111111111111111111111111100 C"
b11111111111111111111111111111100 ^"
b111110100 F
b111110100 m
b111110100 '"
b111110100 A"
b111110100 ]"
bx I
bx n
bx ("
bx @"
bx h"
b10100 9
b10100 D"
b10100 i"
b11000 *
b11000 $"
b11000 F"
b11100 )
b11100 8"
b11100 L"
b11000 8
b11000 9"
b11000 K"
b10100010011 @
b10100010011 J"
b0 H
b0 ;"
b0 r"
b111110000 K
b111110000 <"
b111110000 q"
1!
#95
b10000010010001100000011 A
b10000010010001100000011 I"
b10000010010001100000011 O"
b100000 ;
b100000 g"
b100000 k"
b100000 ,
b100000 G"
b100000 f"
b100000 u"
b11100 :
b11100 H"
b11100 M"
b11100 l"
b11100 t"
b0 D
b0 :"
b0 R"
b100000 ~
b1010 `
b1010 Q"
b0 e
b0 p"
b0 d
b0 o"
b1010 b
b1010 7"
b1010 n"
b0 _
b0 q
0!
#100
b111110000 4
b111110000 l
b111110000 #"
b0 <
b0 g
b0 _"
b111110000 =
b111110000 h
b111110000 j"
b100000 ~
b0 K
b0 <"
b0 q"
b100000 )
b100000 8"
b100000 L"
b11100 8
b11100 9"
b11100 K"
b10000010010001100000011 @
b10000010010001100000011 J"
b1010 6
b1010 %"
b1010 E"
b0 B
b0 &"
b0 C"
b0 ^"
b0 F
b0 m
b0 '"
b0 A"
b0 ]"
b111110000 I
b111110000 n
b111110000 ("
b111110000 @"
b111110000 h"
b11000 9
b11000 D"
b11000 i"
b11100 *
b11100 $"
b11100 F"
0.
b111110100 G
b111110100 x
b111110100 ."
bx J
bx z
bx -"
b1 O
b1 ,"
b1 S"
1&
b10 7
b10 0"
b10 U"
bx {
b11111111111111111111111111111100 C
b11111111111111111111111111111100 y
b11111111111111111111111111111100 /"
bx 3
bx 1"
bx V"
bx e"
b11000 +
b11000 2"
b11000 W"
b0 5
b0 Z"
0$
b0 2
b0 ["
b0 b"
b10100 (
b10100 \"
b10100 c"
1!
#105
b10000010000000100010011 A
b10000010000000100010011 I"
b10000010000000100010011 O"
b100100 ;
b100100 g"
b100100 k"
b100100 ,
b100100 G"
b100100 f"
b100100 u"
b100000 :
b100000 H"
b100000 M"
b100000 l"
b100000 t"
b100 D
b100 :"
b100 R"
b0 P
b0 u
b0 5"
b1000001001000110 `
b1000001001000110 Q"
b100 e
b100 p"
b10 d
b10 o"
b110 b
b110 7"
b110 n"
b10 ^
b10 p
b11 a
b11 r
0!
#110
b100 4
b100 l
b100 #"
bx L
bx d"
bx m"
b100000 ~
b100 <
b100 g
b100 _"
b0 =
b0 h
b0 j"
b10 5
b10 Z"
1$
b1 M
b1 X"
b1 `"
bx 2
bx ["
bx b"
b11000 (
b11000 \"
b11000 c"
b0 G
b0 x
b0 ."
b111110000000 {
b111110000 J
b111110000 z
b111110000 -"
b1010 7
b1010 0"
b1010 U"
b0 C
b0 y
b0 /"
b111110000 3
b111110000 1"
b111110000 V"
b111110000 e"
b11100 +
b11100 2"
b11100 W"
b0 N
b0 )"
b0 ?"
b110 6
b110 %"
b110 E"
b100 B
b100 &"
b100 C"
b100 ^"
b0 I
b0 n
b0 ("
b0 @"
b0 h"
b11100 9
b11100 D"
b11100 i"
b100000 *
b100000 $"
b100000 F"
b100100 )
b100100 8"
b100100 L"
b100000 8
b100000 9"
b100000 K"
b10000010000000100010011 @
b10000010000000100010011 J"
b111110000 K
b111110000 <"
b111110000 q"
1!
#115
b110101000110000111001100011 A
b110101000110000111001100011 I"
b110101000110000111001100011 O"
b101000 ;
b101000 g"
b101000 k"
b101000 ,
b101000 G"
b101000 f"
b101000 u"
b100100 :
b100100 H"
b100100 M"
b100100 l"
b100100 t"
b1 P
b1 u
b1 5"
b1000001000000010 `
b1000001000000010 Q"
b10 b
b10 7"
b10 n"
b0 ^
b0 p
b10011 a
b10011 r
0!
#120
b111110100 4
b111110100 l
b111110100 #"
b111110000 L
b111110000 d"
b111110000 m"
b111110000 =
b111110000 h
b111110000 j"
b100000 ~
bx K
bx <"
bx q"
b101000 )
b101000 8"
b101000 L"
b100100 8
b100100 9"
b100100 K"
b110101000110000111001100011 @
b110101000110000111001100011 J"
b1 N
b1 )"
b1 ?"
b10 6
b10 %"
b10 E"
b111110000 I
b111110000 n
b111110000 ("
b111110000 @"
b111110000 h"
b100000 9
b100000 D"
b100000 i"
b100100 *
b100100 $"
b100100 F"
b0 J
b0 z
b0 -"
b0 O
b0 ,"
b0 S"
b110 7
b110 0"
b110 U"
b100000 {
b100 C
b100 y
b100 /"
b100 3
b100 1"
b100 V"
b100 e"
b100000 +
b100000 2"
b100000 W"
b1010 5
b1010 Z"
b111110000 2
b111110000 ["
b111110000 b"
b11100 (
b11100 \"
b11100 c"
1!
#125
b10001000010010100000011 A
b10001000010010100000011 I"
b10001000010010100000011 O"
b101100 ;
b101100 g"
b101100 k"
b101100 ,
b101100 G"
b101100 f"
b101100 u"
b101000 :
b101000 H"
b101000 M"
b101000 l"
b101000 t"
b1111100 D
b1111100 :"
b1111100 R"
b1000 \
b1000 s
b1000 3"
b10 E
b10 v
b10 P"
1R
0'
b11010100011000011100 `
b11010100011000011100 Q"
b1010 e
b1010 p"
b110 d
b110 o"
b11100 b
b11100 7"
b11100 n"
b11 _
b11 q
b1100011 a
b1100011 r
0!
#130
b10100000 4
b10100000 l
b10100000 #"
b0 L
b0 d"
b0 m"
b100000 ~
b1111100 <
b1111100 g
b1111100 _"
b100100 =
b100100 h
b100100 j"
b110 5
b110 Z"
b0 M
b0 X"
b0 `"
b100 2
b100 ["
b100 b"
b100000 (
b100000 \"
b100000 c"
b111110100000 {
b111110000 J
b111110000 z
b111110000 -"
b1 O
b1 ,"
b1 S"
b10 7
b10 0"
b10 U"
b111110100 3
b111110100 1"
b111110100 V"
b111110100 e"
b100100 +
b100100 2"
b100100 W"
1Q
b1000 [
b1000 o
b1000 ="
0%
b11100 6
b11100 %"
b11100 E"
b1111100 B
b1111100 &"
b1111100 C"
b1111100 ^"
bx I
bx n
bx ("
bx @"
bx h"
b100100 9
b100100 D"
b100100 i"
b101000 *
b101000 $"
b101000 F"
b101100 )
b101100 8"
b101100 L"
b101000 8
b101000 9"
b101000 K"
b10001000010010100000011 @
b10001000010010100000011 J"
b0 K
b0 <"
b0 q"
1!
#135
b101000010010000000100011 A
b101000010010000000100011 I"
b101000010010000000100011 O"
b110000 ;
b110000 g"
b110000 k"
b110000 ,
b110000 G"
b110000 f"
b110000 u"
b101100 :
b101100 H"
b101100 M"
b101100 l"
b101100 t"
b100 D
b100 :"
b100 R"
b0 E
b0 v
b0 P"
b0 P
b0 u
b0 5"
1'
b0 \
b0 s
b0 3"
b1000100001001010 `
b1000100001001010 Q"
b100 e
b100 p"
b1000 d
b1000 o"
b1010 b
b1010 7"
b1010 n"
b0 _
b0 q
b10 ^
b10 p
b11 a
b11 r
0!
#140
b101100 4
b101100 l
b101100 #"
b100 <
b100 g
b100 _"
b101000 =
b101000 h
b101000 j"
b100000 ~
b111110100 L
b111110100 d"
b111110100 m"
b110000 )
b110000 8"
b110000 L"
b101100 8
b101100 9"
b101100 K"
b101000010010000000100011 @
b101000010010000000100011 J"
b0 [
b0 o
b0 ="
b0 N
b0 )"
b0 ?"
1%
b1010 6
b1010 %"
b1010 E"
b100 B
b100 &"
b100 C"
b100 ^"
b0 I
b0 n
b0 ("
b0 @"
b0 h"
b101000 9
b101000 D"
b101000 i"
b101100 *
b101100 $"
b101100 F"
bx J
bx z
bx -"
0&
b11100 7
b11100 0"
b11100 U"
bx {
b1111100 C
b1111100 y
b1111100 /"
b10100000 3
b10100000 1"
b10100000 V"
b10100000 e"
b101000 +
b101000 2"
b101000 W"
b10 5
b10 Z"
b1 M
b1 X"
b1 `"
b111110100 2
b111110100 ["
b111110100 b"
b100100 (
b100100 \"
b100100 c"
1!
#145
b11111111110000010000000100010011 A
b11111111110000010000000100010011 I"
b11111111110000010000000100010011 O"
b110100 ;
b110100 g"
b110100 k"
b110100 ,
b110100 G"
b110100 f"
b110100 u"
b110000 :
b110000 H"
b110000 M"
b110000 l"
b110000 t"
b0 D
b0 :"
b0 R"
b1 E
b1 v
b1 P"
0'
1/
b10100001001000000 `
b10100001001000000 Q"
b1010 e
b1010 p"
b10 d
b10 o"
b0 b
b0 7"
b0 n"
b100011 a
b100011 r
0!
#150
b10100000 L
b10100000 d"
b10100000 m"
b100000 ~
b0 <
b0 g
b0 _"
b101100 =
b101100 h
b101100 j"
b11100 5
b11100 Z"
0$
b10100000 2
b10100000 ["
b10100000 b"
b101000 (
b101000 \"
b101000 c"
b100000 {
b0 J
b0 z
b0 -"
b0 O
b0 ,"
b0 S"
1&
b1010 7
b1010 0"
b1010 U"
b100 C
b100 y
b100 /"
b101100 3
b101100 1"
b101100 V"
b101100 e"
b101100 +
b101100 2"
b101100 W"
1-
0%
b0 6
b0 %"
b0 E"
b0 B
b0 &"
b0 C"
b0 ^"
b101100 9
b101100 D"
b101100 i"
b110000 *
b110000 $"
b110000 F"
b110100 )
b110100 8"
b110100 L"
b110000 8
b110000 9"
b110000 K"
b11111111110000010000000100010011 @
b11111111110000010000000100010011 J"
bx K
bx <"
bx q"
1!
#155
b100000010010000000100011 A
b100000010010000000100011 I"
b100000010010000000100011 O"
b111000 ;
b111000 g"
b111000 k"
b111000 ,
b111000 G"
b111000 f"
b111000 u"
b110100 :
b110100 H"
b110100 M"
b110100 l"
b110100 t"
b11111111111111111111111111111100 D
b11111111111111111111111111111100 :"
b11111111111111111111111111111100 R"
b0 E
b0 v
b0 P"
b1 P
b1 u
b1 5"
1'
0R
0/
b1111111111000001000000010 `
b1111111111000001000000010 Q"
b11100 e
b11100 p"
b10 b
b10 7"
b10 n"
b1111111 _
b1111111 q
b0 ^
b0 p
b10011 a
b10011 r
0!
