CPU_TB.vcd
$date
	Wed Nov 01 17:13:09 2023
$end
$version
	Icarus Verilog
$end
$timescale
	1ns
$end
$scope module CPU_TB $end
$var reg 1 ! clk $end
$var reg 1 " reset $end
$var reg 1 # rst $end
$scope module cpu $end
$var wire 1 ! clk $end
$var wire 1 " reset $end
$var wire 1 # rst $end
$var wire 1 $ we $end
$var wire 32 % sum_out [31:0] $end
$var wire 1 & store $end
$var wire 3 ' salida_funct3 [2:0] $end
$var wire 32 ( result [31:0] $end
$var wire 32 ) pc_out [31:0] $end
$var wire 32 * pc_in [31:0] $end
$var wire 32 + operand2 [31:0] $end
$var wire 32 , operand1 [31:0] $end
$var wire 32 - load_data [31:0] $end
$var wire 32 . instruction [31:0] $end
$var wire 32 / imm32 [31:0] $end
$var wire 3 0 funct_imm [2:0] $end
$var wire 32 1 data2 [31:0] $end
$var wire 32 2 data1 [31:0] $end
$var wire 32 3 data [31:0] $end
$var wire 2 4 controlRF [1:0] $end
$var wire 1 5 controlOp1 $end
$var wire 1 6 controlALU $end
$var wire 3 7 Type_dm [2:0] $end
$var wire 1 8 Type_alu_dm $end
$var wire 1 9 NextPCSrc $end
$var wire 5 : BrOp [4:0] $end
$var parameter 32 ; TAM $end
$var reg 3 < funct3 [2:0] $end
$var reg 7 = funct7 [6:0] $end
$var reg 25 > immediate [24:0] $end
$var reg 7 ? opcode [6:0] $end
$var reg 5 @ rd [4:0] $end
$var reg 1 A read $end
$var reg 5 B rs1 [4:0] $end
$var reg 5 C rs2 [4:0] $end
$scope module alu $end
$var wire 1 D clk $end
$var wire 32 E operand2 [31:0] $end
$var wire 32 F operand1 [31:0] $end
$var wire 3 G funct3_alu [2:0] $end
$var wire 1 8 Type_alu $end
$var reg 1 H bit_significativo $end
$var reg 32 I conteo [31:0] $end
$var reg 32 J result [31:0] $end
$upscope $end
$scope module branch $end
$var wire 32 K RUrs2 [31:0] $end
$var wire 32 L RUrs1 [31:0] $end
$var wire 5 M BrOp [4:0] $end
$var reg 1 9 NextPCSrc $end
$upscope $end
$scope module cu $end
$var wire 3 N funct3 [2:0] $end
$var wire 7 O funct7 [6:0] $end
$var wire 7 P opcode [6:0] $end
$var reg 5 Q BrOp [4:0] $end
$var reg 1 8 Type_alu $end
$var reg 3 R Type_dm [2:0] $end
$var reg 1 6 controlALU $end
$var reg 1 5 controlOp1 $end
$var reg 2 S controlRF [1:0] $end
$var reg 3 T funct_imm [2:0] $end
$var reg 3 U salida_funct3 [2:0] $end
$var reg 1 & store $end
$var reg 1 $ we $end
$upscope $end
$scope module dm $end
$var wire 3 V Type [2:0] $end
$var wire 1 ! clk $end
$var wire 1 & store $end
$var wire 32 W store_data [31:0] $end
$var wire 32 X offset [31:0] $end
$var wire 32 Y direccion [31:0] $end
$var wire 32 Z address [31:0] $end
$var parameter 32 [ TAM $end
$var reg 32 \ count [31:0] $end
$var reg 32 ] data [31:0] $end
$var reg 32 ^ load_data [31:0] $end
$upscope $end
$scope module im $end
$var wire 32 _ pc [31:0] $end
$var parameter 32 ` TAM $end
$var reg 32 a instruction [31:0] $end
$upscope $end
$scope module imm $end
$var wire 3 b funct [2:0] $end
$var wire 25 c immediate [24:0] $end
$var reg 32 d imm32 [31:0] $end
$upscope $end
$scope module mux1 $end
$var wire 1 6 control $end
$var wire 32 e entrada2 [31:0] $end
$var wire 32 f salida [31:0] $end
$var wire 32 g entrada1 [31:0] $end
$upscope $end
$scope module mux2 $end
$var wire 2 h control [1:0] $end
$var wire 32 i entrada1 [31:0] $end
$var wire 32 j entrada2 [31:0] $end
$var wire 32 k salida [31:0] $end
$var wire 32 l entrada3 [31:0] $end
$upscope $end
$scope module mux3 $end
$var wire 1 9 control $end
$var wire 32 m entrada2 [31:0] $end
$var wire 32 n salida [31:0] $end
$var wire 32 o entrada1 [31:0] $end
$upscope $end
$scope module mux4 $end
$var wire 1 5 control $end
$var wire 32 p salida [31:0] $end
$var wire 32 q entrada2 [31:0] $end
$var wire 32 r entrada1 [31:0] $end
$upscope $end
$scope module pc $end
$var wire 1 ! clk $end
$var wire 32 s pc_in [31:0] $end
$var wire 1 " reset $end
$var reg 32 t pc_out [31:0] $end
$upscope $end
$scope module rf $end
$var wire 1 $ WriteEnable $end
$var wire 1 ! clk $end
$var wire 32 u data [31:0] $end
$var wire 5 v rd [4:0] $end
$var wire 5 w rs1 [4:0] $end
$var wire 5 x rs2 [4:0] $end
$var wire 1 # rst $end
$var reg 32 y data1 [31:0] $end
$var reg 32 z data2 [31:0] $end
$var reg 32 { i [31:0] $end
$upscope $end
$scope module sumador $end
$var wire 32 | pc [31:0] $end
$var reg 32 } sum_out [31:0] $end
$upscope $end
$upscope $end
$upscope $end
$enddefinitions $end
$comment Show the parameter values. $end
$dumpall
b1111111111 `
b1111111111 [
b1111111111 ;
$end
#0
$dumpvars
bx }
bx |
bx {
bx z
bx y
bx x
bx w
bx v
bx u
bx t
bx s
bx r
bx q
bx p
bx o
bx n
bx m
bx l
bx k
bx j
bx i
bx h
bx g
bx f
bx e
bx d
bx c
bx b
bx a
bx _
bx ^
bx ]
bx \
bx Z
bx Y
bx X
bx W
bx V
bx U
bx T
bx S
bx R
bx Q
bx P
bx O
bx N
bx M
bx L
bx K
bx J
bx I
xH
bx G
bx F
bx E
zD
bx C
bx B
1A
bx @
bx ?
bx >
bx =
bx <
bx :
x9
x8
bx 7
x6
x5
bx 4
bx 3
bx 2
bx 1
bx 0
bx /
bx .
bx -
bx ,
bx +
bx *
bx )
bx (
bx '
x&
bx %
x$
1#
x"
1!
$end
#5
0!
#10
1!
1"
0#
#15
b100000000000010010011 .
b100000000000010010011 a
b100 %
b100 l
b100 o
b100 }
b0 )
b0 _
b0 q
b0 t
b0 |
0!
#20
b1 3
b1 k
b1 u
b1 (
b1 J
b1 j
b1 m
b0 ,
b0 F
b0 p
b0 1
b0 K
b0 W
b0 g
b0 z
b100000 Z
b0 2
b0 L
b0 Y
b0 r
b0 y
b100 *
b100 n
b100 s
b1 +
b1 E
b1 f
09
b1 /
b1 X
b1 d
b1 e
08
b0 '
b0 G
b0 U
b0 0
b0 T
b0 b
b1 4
b1 S
b1 h
1$
05
16
b0 :
b0 M
b0 Q
0&
b10000000000001 >
b10000000000001 c
b1 C
b1 x
b0 B
b0 w
b1 @
b1 v
b0 =
b0 O
b0 <
b0 N
b10011 ?
b10011 P
1!
0"
#25
b101000000000000100010011 .
b101000000000000100010011 a
b1000 *
b1000 n
b1000 s
b1000 %
b1000 l
b1000 o
b1000 }
b100 )
b100 _
b100 q
b100 t
b100 |
0!
#30
b1010 3
b1010 k
b1010 u
b1010 (
b1010 J
b1010 j
b1010 m
b1010 +
b1010 E
b1010 f
b101000000 Z
b1010 /
b1010 X
b1010 d
b1010 e
b10100000000000010 >
b10100000000000010 c
b1010 C
b1010 x
b10 @
b10 v
1!
#35
b110010011 .
b110010011 a
b1100 *
b1100 n
b1100 s
b1100 %
b1100 l
b1100 o
b1100 }
b1000 )
b1000 _
b1000 q
b1000 t
b1000 |
0!
#40
b0 3
b0 k
b0 u
b0 (
b0 J
b0 j
b0 m
b0 +
b0 E
b0 f
b0 Z
b0 /
b0 X
b0 d
b0 e
b11 >
b11 c
b0 C
b0 x
b11 @
b11 v
1!
#45
b11100000000001010010011 .
b11100000000001010010011 a
b10000 *
b10000 n
b10000 s
b10000 %
b10000 l
b10000 o
b10000 }
b1100 )
b1100 _
b1100 q
b1100 t
b1100 |
0!
#50
b111 3
b111 k
b111 u
b111 (
b111 J
b111 j
b111 m
b111 +
b111 E
b111 f
b11100000 Z
b111 /
b111 X
b111 d
b111 e
b1110000000000101 >
b1110000000000101 c
b111 C
b111 x
b101 @
b101 v
1!
#55
b100011000000110110011 .
b100011000000110110011 a
b10100 *
b10100 n
b10100 s
b10100 %
b10100 l
b10100 o
b10100 }
b10000 )
b10000 _
b10000 q
b10000 t
b10000 |
0!
#60
b1 1
b1 K
b1 W
b1 g
b1 z
b1 3
b1 k
b1 u
b1 (
b1 J
b1 j
b1 m
b1 +
b1 E
b1 f
b100000 Z
b1 /
b1 X
b1 d
b1 e
06
b10001100000011 >
b10001100000011 c
b1 C
b1 x
b11 B
b11 w
b11 @
b11 v
b110011 ?
b110011 P
1!
#65
b100001000000010010011 .
b100001000000010010011 a
b11000 *
b11000 n
b11000 s
b11000 %
b11000 l
b11000 o
b11000 }
b10100 )
b10100 _
b10100 q
b10100 t
b10100 |
0!
#70
b10 3
b10 k
b10 u
b10 (
b10 J
b10 j
b10 m
b1 ,
b1 F
b1 p
b1000000 Z
b1 2
b1 L
b1 Y
b1 r
b1 y
16
b10000100000001 >
b10000100000001 c
b1 B
b1 w
b1 @
b1 v
b10011 ?
b10011 P
1!
#75
b11111110001000001001110011100011 .
b11111110001000001001110011100011 a
b11100 *
b11100 n
b11100 s
b11100 %
b11100 l
b11100 o
b11100 }
b11000 )
b11000 _
b11000 q
b11000 t
b11000 |
0!
#80
b10100 *
b10100 n
b10100 s
19
b1010 1
b1010 K
b1010 W
b1010 g
b1010 z
b10 2
b10 L
b10 Y
b10 r
b10 y
b10100 3
b10100 k
b10100 u
b10100 (
b10100 J
b10100 j
b10100 m
b11000 ,
b11000 F
b11000 p
b11111111111111111111111111111100 +
b11111111111111111111111111111100 E
b11111111111111111111111111111100 f
b11111111111111111111111111000000 Z
b11111111111111111111111111111100 /
b11111111111111111111111111111100 X
b11111111111111111111111111111100 d
b11111111111111111111111111111100 e
b1001 :
b1001 M
b1001 Q
b10 0
b10 T
b10 b
15
0$
b1111111000100000100111001 >
b1111111000100000100111001 c
b10 C
b10 x
b11001 @
b11001 v
b1111111 =
b1111111 O
b1 <
b1 N
b1100011 ?
b1100011 P
1!
#85
b100001000000010010011 .
b100001000000010010011 a
b10000 3
b10000 k
b10000 u
b10000 *
b10000 n
b10000 s
b10000 (
b10000 J
b10000 j
b10000 m
b10100 ,
b10100 F
b10100 p
b11000 %
b11000 l
b11000 o
b11000 }
b10100 )
b10100 _
b10100 q
b10100 t
b10100 |
0!
#90
b10 1
b10 K
b10 W
b10 g
b10 z
b11 3
b11 k
b11 u
b11000 *
b11000 n
b11000 s
b11 (
b11 J
b11 j
b11 m
b10 ,
b10 F
b10 p
b1 +
b1 E
b1 f
09
b1100000 Z
b1 /
b1 X
b1 d
b1 e
b0 0
b0 T
b0 b
1$
05
b0 :
b0 M
b0 Q
b10000100000001 >
b10000100000001 c
b1 C
b1 x
b1 @
b1 v
b0 =
b0 O
b0 <
b0 N
b10011 ?
b10011 P
1!
#95
b11111110001000001001110011100011 .
b11111110001000001001110011100011 a
b11100 *
b11100 n
b11100 s
b11100 %
b11100 l
b11100 o
b11100 }
b11000 )
b11000 _
b11000 q
b11000 t
b11000 |
0!
#100
b10100 *
b10100 n
b10100 s
19
b1010 1
b1010 K
b1010 W
b1010 g
b1010 z
b11 2
b11 L
b11 Y
b11 r
b11 y
b10100 3
b10100 k
b10100 u
b10100 (
b10100 J
b10100 j
b10100 m
b11000 ,
b11000 F
b11000 p
b11111111111111111111111111111100 +
b11111111111111111111111111111100 E
b11111111111111111111111111111100 f
b11111111111111111111111111100000 Z
b11111111111111111111111111111100 /
b11111111111111111111111111111100 X
b11111111111111111111111111111100 d
b11111111111111111111111111111100 e
b1001 :
b1001 M
b1001 Q
b10 0
b10 T
b10 b
15
0$
b1111111000100000100111001 >
b1111111000100000100111001 c
b10 C
b10 x
b11001 @
b11001 v
b1111111 =
b1111111 O
b1 <
b1 N
b1100011 ?
b1100011 P
1!
#105
b100001000000010010011 .
b100001000000010010011 a
b10000 3
b10000 k
b10000 u
b10000 *
b10000 n
b10000 s
b10000 (
b10000 J
b10000 j
b10000 m
b10100 ,
b10100 F
b10100 p
b11000 %
b11000 l
b11000 o
b11000 }
b10100 )
b10100 _
b10100 q
b10100 t
b10100 |
0!
#110
b11 1
b11 K
b11 W
b11 g
b11 z
b100 3
b100 k
b100 u
b11000 *
b11000 n
b11000 s
b100 (
b100 J
b100 j
b100 m
b11 ,
b11 F
b11 p
b1 +
b1 E
b1 f
09
b10000000 Z
b1 /
b1 X
b1 d
b1 e
b0 0
b0 T
b0 b
1$
05
b0 :
b0 M
b0 Q
b10000100000001 >
b10000100000001 c
b1 C
b1 x
b1 @
b1 v
b0 =
b0 O
b0 <
b0 N
b10011 ?
b10011 P
1!
#115
b11111110001000001001110011100011 .
b11111110001000001001110011100011 a
b11100 *
b11100 n
b11100 s
b11100 %
b11100 l
b11100 o
b11100 }
b11000 )
b11000 _
b11000 q
b11000 t
b11000 |
0!
#120
b10100 *
b10100 n
b10100 s
19
b1010 1
b1010 K
b1010 W
b1010 g
b1010 z
b100 2
b100 L
b100 Y
b100 r
b100 y
b10100 3
b10100 k
b10100 u
b10100 (
b10100 J
b10100 j
b10100 m
b11000 ,
b11000 F
b11000 p
b11111111111111111111111111111100 +
b11111111111111111111111111111100 E
b11111111111111111111111111111100 f
b0 Z
b11111111111111111111111111111100 /
b11111111111111111111111111111100 X
b11111111111111111111111111111100 d
b11111111111111111111111111111100 e
b1001 :
b1001 M
b1001 Q
b10 0
b10 T
b10 b
15
0$
b1111111000100000100111001 >
b1111111000100000100111001 c
b10 C
b10 x
b11001 @
b11001 v
b1111111 =
b1111111 O
b1 <
b1 N
b1100011 ?
b1100011 P
1!
#125
b100001000000010010011 .
b100001000000010010011 a
b10000 3
b10000 k
b10000 u
b10000 *
b10000 n
b10000 s
b10000 (
b10000 J
b10000 j
b10000 m
b10100 ,
b10100 F
b10100 p
b11000 %
b11000 l
b11000 o
b11000 }
b10100 )
b10100 _
b10100 q
b10100 t
b10100 |
0!
#130
b100 1
b100 K
b100 W
b100 g
b100 z
b101 3
b101 k
b101 u
b11000 *
b11000 n
b11000 s
b101 (
b101 J
b101 j
b101 m
b100 ,
b100 F
b100 p
b1 +
b1 E
b1 f
09
b10100000 Z
b1 /
b1 X
b1 d
b1 e
b0 0
b0 T
b0 b
1$
05
b0 :
b0 M
b0 Q
b10000100000001 >
b10000100000001 c
b1 C
b1 x
b1 @
b1 v
b0 =
b0 O
b0 <
b0 N
b10011 ?
b10011 P
1!
#135
b11111110001000001001110011100011 .
b11111110001000001001110011100011 a
b11100 *
b11100 n
b11100 s
b11100 %
b11100 l
b11100 o
b11100 }
b11000 )
b11000 _
b11000 q
b11000 t
b11000 |
0!
#140
b10100 *
b10100 n
b10100 s
19
b1010 1
b1010 K
b1010 W
b1010 g
b1010 z
b101 2
b101 L
b101 Y
b101 r
b101 y
b10100 3
b10100 k
b10100 u
b10100 (
b10100 J
b10100 j
b10100 m
b11000 ,
b11000 F
b11000 p
b11111111111111111111111111111100 +
b11111111111111111111111111111100 E
b11111111111111111111111111111100 f
b100000 Z
b11111111111111111111111111111100 /
b11111111111111111111111111111100 X
b11111111111111111111111111111100 d
b11111111111111111111111111111100 e
b1001 :
b1001 M
b1001 Q
b10 0
b10 T
b10 b
15
0$
b1111111000100000100111001 >
b1111111000100000100111001 c
b10 C
b10 x
b11001 @
b11001 v
b1111111 =
b1111111 O
b1 <
b1 N
b1100011 ?
b1100011 P
1!
#145
b100001000000010010011 .
b100001000000010010011 a
b10000 3
b10000 k
b10000 u
b10000 *
b10000 n
b10000 s
b10000 (
b10000 J
b10000 j
b10000 m
b10100 ,
b10100 F
b10100 p
b11000 %
b11000 l
b11000 o
b11000 }
b10100 )
b10100 _
b10100 q
b10100 t
b10100 |
0!
#150
b101 1
b101 K
b101 W
b101 g
b101 z
b110 3
b110 k
b110 u
b11000 *
b11000 n
b11000 s
b110 (
b110 J
b110 j
b110 m
b101 ,
b101 F
b101 p
b1 +
b1 E
b1 f
09
b11000000 Z
b1 /
b1 X
b1 d
b1 e
b0 0
b0 T
b0 b
1$
05
b0 :
b0 M
b0 Q
b10000100000001 >
b10000100000001 c
b1 C
b1 x
b1 @
b1 v
b0 =
b0 O
b0 <
b0 N
b10011 ?
b10011 P
1!
#155
b11111110001000001001110011100011 .
b11111110001000001001110011100011 a
b11100 *
b11100 n
b11100 s
b11100 %
b11100 l
b11100 o
b11100 }
b11000 )
b11000 _
b11000 q
b11000 t
b11000 |
0!
#160
b10100 *
b10100 n
b10100 s
19
b1010 1
b1010 K
b1010 W
b1010 g
b1010 z
b110 2
b110 L
b110 Y
b110 r
b110 y
b10100 3
b10100 k
b10100 u
b10100 (
b10100 J
b10100 j
b10100 m
b11000 ,
b11000 F
b11000 p
b11111111111111111111111111111100 +
b11111111111111111111111111111100 E
b11111111111111111111111111111100 f
b1000000 Z
b11111111111111111111111111111100 /
b11111111111111111111111111111100 X
b11111111111111111111111111111100 d
b11111111111111111111111111111100 e
b1001 :
b1001 M
b1001 Q
b10 0
b10 T
b10 b
15
0$
b1111111000100000100111001 >
b1111111000100000100111001 c
b10 C
b10 x
b11001 @
b11001 v
b1111111 =
b1111111 O
b1 <
b1 N
b1100011 ?
b1100011 P
1!
#165
b100001000000010010011 .
b100001000000010010011 a
b10000 3
b10000 k
b10000 u
b10000 *
b10000 n
b10000 s
b10000 (
b10000 J
b10000 j
b10000 m
b10100 ,
b10100 F
b10100 p
b11000 %
b11000 l
b11000 o
b11000 }
b10100 )
b10100 _
b10100 q
b10100 t
b10100 |
0!
#170
b110 1
b110 K
b110 W
b110 g
b110 z
b111 3
b111 k
b111 u
b11000 *
b11000 n
b11000 s
b111 (
b111 J
b111 j
b111 m
b110 ,
b110 F
b110 p
b1 +
b1 E
b1 f
09
b11100000 Z
b1 /
b1 X
b1 d
b1 e
b0 0
b0 T
b0 b
1$
05
b0 :
b0 M
b0 Q
b10000100000001 >
b10000100000001 c
b1 C
b1 x
b1 @
b1 v
b0 =
b0 O
b0 <
b0 N
b10011 ?
b10011 P
1!
#175
b11111110001000001001110011100011 .
b11111110001000001001110011100011 a
b11100 *
b11100 n
b11100 s
b11100 %
b11100 l
b11100 o
b11100 }
b11000 )
b11000 _
b11000 q
b11000 t
b11000 |
0!
#180
b10100 *
b10100 n
b10100 s
19
b1010 1
b1010 K
b1010 W
b1010 g
b1010 z
b111 2
b111 L
b111 Y
b111 r
b111 y
b10100 3
b10100 k
b10100 u
b10100 (
b10100 J
b10100 j
b10100 m
b11000 ,
b11000 F
b11000 p
b11111111111111111111111111111100 +
b11111111111111111111111111111100 E
b11111111111111111111111111111100 f
b1100000 Z
b11111111111111111111111111111100 /
b11111111111111111111111111111100 X
b11111111111111111111111111111100 d
b11111111111111111111111111111100 e
b1001 :
b1001 M
b1001 Q
b10 0
b10 T
b10 b
15
0$
b1111111000100000100111001 >
b1111111000100000100111001 c
b10 C
b10 x
b11001 @
b11001 v
b1111111 =
b1111111 O
b1 <
b1 N
b1100011 ?
b1100011 P
1!
#185
b100001000000010010011 .
b100001000000010010011 a
b10000 3
b10000 k
b10000 u
b10000 *
b10000 n
b10000 s
b10000 (
b10000 J
b10000 j
b10000 m
b10100 ,
b10100 F
b10100 p
b11000 %
b11000 l
b11000 o
b11000 }
b10100 )
b10100 _
b10100 q
b10100 t
b10100 |
0!
#190
b111 1
b111 K
b111 W
b111 g
b111 z
b1000 3
b1000 k
b1000 u
b11000 *
b11000 n
b11000 s
b1000 (
b1000 J
b1000 j
b1000 m
b111 ,
b111 F
b111 p
b1 +
b1 E
b1 f
09
b100000000 Z
b1 /
b1 X
b1 d
b1 e
b0 0
b0 T
b0 b
1$
05
b0 :
b0 M
b0 Q
b10000100000001 >
b10000100000001 c
b1 C
b1 x
b1 @
b1 v
b0 =
b0 O
b0 <
b0 N
b10011 ?
b10011 P
1!
#195
b11111110001000001001110011100011 .
b11111110001000001001110011100011 a
b11100 *
b11100 n
b11100 s
b11100 %
b11100 l
b11100 o
b11100 }
b11000 )
b11000 _
b11000 q
b11000 t
b11000 |
0!
#200
b10100 *
b10100 n
b10100 s
19
b1010 1
b1010 K
b1010 W
b1010 g
b1010 z
b1000 2
b1000 L
b1000 Y
b1000 r
b1000 y
b10100 3
b10100 k
b10100 u
b10100 (
b10100 J
b10100 j
b10100 m
b11000 ,
b11000 F
b11000 p
b11111111111111111111111111111100 +
b11111111111111111111111111111100 E
b11111111111111111111111111111100 f
b10000000 Z
b11111111111111111111111111111100 /
b11111111111111111111111111111100 X
b11111111111111111111111111111100 d
b11111111111111111111111111111100 e
b1001 :
b1001 M
b1001 Q
b10 0
b10 T
b10 b
15
0$
b1111111000100000100111001 >
b1111111000100000100111001 c
b10 C
b10 x
b11001 @
b11001 v
b1111111 =
b1111111 O
b1 <
b1 N
b1100011 ?
b1100011 P
1!
#205
b100001000000010010011 .
b100001000000010010011 a
b10000 3
b10000 k
b10000 u
b10000 *
b10000 n
b10000 s
b10000 (
b10000 J
b10000 j
b10000 m
b10100 ,
b10100 F
b10100 p
b11000 %
b11000 l
b11000 o
b11000 }
b10100 )
b10100 _
b10100 q
b10100 t
b10100 |
0!
#210
b1000 1
b1000 K
b1000 W
b1000 g
b1000 z
b1001 3
b1001 k
b1001 u
b11000 *
b11000 n
b11000 s
b1001 (
b1001 J
b1001 j
b1001 m
b1000 ,
b1000 F
b1000 p
b1 +
b1 E
b1 f
09
b100100000 Z
b1 /
b1 X
b1 d
b1 e
b0 0
b0 T
b0 b
1$
05
b0 :
b0 M
b0 Q
b10000100000001 >
b10000100000001 c
b1 C
b1 x
b1 @
b1 v
b0 =
b0 O
b0 <
b0 N
b10011 ?
b10011 P
1!
#215
b11111110001000001001110011100011 .
b11111110001000001001110011100011 a
b11100 *
b11100 n
b11100 s
b11100 %
b11100 l
b11100 o
b11100 }
b11000 )
b11000 _
b11000 q
b11000 t
b11000 |
0!
#220
b10100 *
b10100 n
b10100 s
19
b1010 1
b1010 K
b1010 W
b1010 g
b1010 z
b1001 2
b1001 L
b1001 Y
b1001 r
b1001 y
b10100 3
b10100 k
b10100 u
b10100 (
b10100 J
b10100 j
b10100 m
b11000 ,
b11000 F
b11000 p
b11111111111111111111111111111100 +
b11111111111111111111111111111100 E
b11111111111111111111111111111100 f
b10100000 Z
b11111111111111111111111111111100 /
b11111111111111111111111111111100 X
b11111111111111111111111111111100 d
b11111111111111111111111111111100 e
b1001 :
b1001 M
b1001 Q
b10 0
b10 T
b10 b
15
0$
b1111111000100000100111001 >
b1111111000100000100111001 c
b10 C
b10 x
b11001 @
b11001 v
b1111111 =
b1111111 O
b1 <
b1 N
b1100011 ?
b1100011 P
1!
#225
b100001000000010010011 .
b100001000000010010011 a
b10000 3
b10000 k
b10000 u
b10000 *
b10000 n
b10000 s
b10000 (
b10000 J
b10000 j
b10000 m
b10100 ,
b10100 F
b10100 p
b11000 %
b11000 l
b11000 o
b11000 }
b10100 )
b10100 _
b10100 q
b10100 t
b10100 |
0!
#230
b1001 1
b1001 K
b1001 W
b1001 g
b1001 z
b1010 3
b1010 k
b1010 u
b11000 *
b11000 n
b11000 s
b1010 (
b1010 J
b1010 j
b1010 m
b1001 ,
b1001 F
b1001 p
b1 +
b1 E
b1 f
09
b101000000 Z
b1 /
b1 X
b1 d
b1 e
b0 0
b0 T
b0 b
1$
05
b0 :
b0 M
b0 Q
b10000100000001 >
b10000100000001 c
b1 C
b1 x
b1 @
b1 v
b0 =
b0 O
b0 <
b0 N
b10011 ?
b10011 P
1!
#235
b11111110001000001001110011100011 .
b11111110001000001001110011100011 a
b11100 *
b11100 n
b11100 s
b11100 %
b11100 l
b11100 o
b11100 }
b11000 )
b11000 _
b11000 q
b11000 t
b11000 |
0!
#240
b1010 1
b1010 K
b1010 W
b1010 g
b1010 z
b1010 2
b1010 L
b1010 Y
b1010 r
b1010 y
b10100 3
b10100 k
b10100 u
b10100 (
b10100 J
b10100 j
b10100 m
b11000 ,
b11000 F
b11000 p
b11111111111111111111111111111100 +
b11111111111111111111111111111100 E
b11111111111111111111111111111100 f
b11000000 Z
b11111111111111111111111111111100 /
b11111111111111111111111111111100 X
b11111111111111111111111111111100 d
b11111111111111111111111111111100 e
b1001 :
b1001 M
b1001 Q
b10 0
b10 T
b10 b
15
0$
b1111111000100000100111001 >
b1111111000100000100111001 c
b10 C
b10 x
b11001 @
b11001 v
b1111111 =
b1111111 O
b1 <
b1 N
b1100011 ?
b1100011 P
1!
#245
b0 .
b0 a
b11000 3
b11000 k
b11000 u
b11000 (
b11000 J
b11000 j
b11000 m
b100000 *
b100000 n
b100000 s
b11100 ,
b11100 F
b11100 p
b100000 %
b100000 l
b100000 o
b100000 }
b11100 )
b11100 _
b11100 q
b11100 t
b11100 |
0!
#250
b0 1
b0 K
b0 W
b0 g
b0 z
b0 2
b0 L
b0 Y
b0 r
b0 y
b11100 3
b11100 k
b11100 u
b11100 (
b11100 J
b11100 j
b11100 m
b0 +
b0 E
b0 f
b0 Z
b0 /
b0 X
b0 d
b0 e
b100000 {
b0 >
b0 c
b0 C
b0 x
b0 B
b0 w
b0 @
b0 v
b0 =
b0 O
b0 <
b0 N
b0 ?
b0 P
1!
#255
bx .
bx a
b100000 3
b100000 k
b100000 u
b100000 (
b100000 J
b100000 j
b100000 m
b100100 *
b100100 n
b100100 s
b100000 ,
b100000 F
b100000 p
b100100 %
b100100 l
b100100 o
b100100 }
b100000 )
b100000 _
b100000 q
b100000 t
b100000 |
0!
